^D:\PROJECTS\GFXPROG\OBLIG2\OBLIG2\RELEASE\ENTITY.OBJ|D:\PROJECTS\GFXPROG\OBLIG2\OBLIG2\RELEASE\INIT.OBJ|D:\PROJECTS\GFXPROG\OBLIG2\OBLIG2\RELEASE\PACMAN.OBJ|D:\PROJECTS\GFXPROG\OBLIG2\OBLIG2\RELEASE\PELLET.OBJ|D:\PROJECTS\GFXPROG\OBLIG2\OBLIG2\RELEASE\SHADERS.OBJ|D:\PROJECTS\GFXPROG\OBLIG2\OBLIG2\RELEASE\SOURCE.OBJ|D:\PROJECTS\GFXPROG\OBLIG2\OBLIG2\RELEASE\TEXTURE.OBJ|D:\PROJECTS\GFXPROG\OBLIG2\OBLIG2\RELEASE\TILEMAP.OBJ
C:\WINDOWS\GLOBALIZATION\SORTING\SORTDEFAULT.NLS
D:\PROJECTS\CONSOLEAPPLICATION1\DEPENDENCIES\GLEW-2.1.0\LIB\RELEASE\WIN32\GLEW32.LIB
D:\PROJECTS\CONSOLEAPPLICATION1\DEPENDENCIES\GLFW-3.2.1.BIN.WIN32\LIB-VC2015\GLFW3.LIB
D:\PROJECTS\CONSOLEAPPLICATION1\DEPENDENCIES\GLFW-3.2.1.BIN.WIN32\LIB-VC2015\GLFW3DLL.LIB
D:\PROJECTS\CONSOLEAPPLICATION1\DEPENDENCIES\SDL2_IMAGE-2.0.2\LIB\X86\SDL2_IMAGE.LIB
D:\PROJECTS\CONSOLEAPPLICATION1\DEPENDENCIES\SDL2_MIXER-2.0.2\LIB\X86\SDL2_MIXER.LIB
D:\PROJECTS\CONSOLEAPPLICATION1\DEPENDENCIES\SDL2-2.0.7\LIB\X86\SDL2.LIB
D:\PROJECTS\CONSOLEAPPLICATION1\DEPENDENCIES\SDL2_TTF-2.0.14\LIB\X86\SDL2_TTF.LIB
D:\PROJECTS\CONSOLEAPPLICATION1\DEPENDENCIES\SDL2-2.0.7\LIB\X86\SDL2MAIN.LIB
C:\PROGRAM FILES (X86)\WINDOWS KITS\10\LIB\10.0.16299.0\UM\X86\OPENGL32.LIB
C:\PROGRAM FILES (X86)\WINDOWS KITS\10\LIB\10.0.16299.0\UM\X86\KERNEL32.LIB
C:\PROGRAM FILES (X86)\WINDOWS KITS\10\LIB\10.0.16299.0\UM\X86\USER32.LIB
C:\PROGRAM FILES (X86)\WINDOWS KITS\10\LIB\10.0.16299.0\UM\X86\GDI32.LIB
C:\PROGRAM FILES (X86)\WINDOWS KITS\10\LIB\10.0.16299.0\UM\X86\WINSPOOL.LIB
C:\PROGRAM FILES (X86)\WINDOWS KITS\10\LIB\10.0.16299.0\UM\X86\COMDLG32.LIB
C:\PROGRAM FILES (X86)\WINDOWS KITS\10\LIB\10.0.16299.0\UM\X86\ADVAPI32.LIB
C:\PROGRAM FILES (X86)\WINDOWS KITS\10\LIB\10.0.16299.0\UM\X86\SHELL32.LIB
C:\PROGRAM FILES (X86)\WINDOWS KITS\10\LIB\10.0.16299.0\UM\X86\OLE32.LIB
C:\PROGRAM FILES (X86)\WINDOWS KITS\10\LIB\10.0.16299.0\UM\X86\OLEAUT32.LIB
C:\PROGRAM FILES (X86)\WINDOWS KITS\10\LIB\10.0.16299.0\UM\X86\UUID.LIB
C:\PROGRAM FILES (X86)\WINDOWS KITS\10\LIB\10.0.16299.0\UM\X86\ODBC32.LIB
C:\PROGRAM FILES (X86)\WINDOWS KITS\10\LIB\10.0.16299.0\UM\X86\ODBCCP32.LIB
D:\PROJECTS\GFXPROG\OBLIG2\OBLIG2\RELEASE\PELLET.OBJ
D:\PROJECTS\GFXPROG\OBLIG2\OBLIG2\RELEASE\ENTITY.OBJ
D:\PROJECTS\GFXPROG\OBLIG2\OBLIG2\RELEASE\INIT.OBJ
D:\PROJECTS\GFXPROG\OBLIG2\OBLIG2\RELEASE\PACMAN.OBJ
D:\PROJECTS\GFXPROG\OBLIG2\OBLIG2\RELEASE\SHADERS.OBJ
D:\PROJECTS\GFXPROG\OBLIG2\OBLIG2\RELEASE\SOURCE.OBJ
D:\PROJECTS\GFXPROG\OBLIG2\OBLIG2\RELEASE\TEXTURE.OBJ
D:\PROJECTS\GFXPROG\OBLIG2\OBLIG2\RELEASE\TILEMAP.OBJ
C:\PROGRAM FILES (X86)\MICROSOFT VISUAL STUDIO\2017\COMMUNITY\VC\TOOLS\MSVC\14.12.25827\BIN\HOSTX86\X86\C2.DLL
C:\PROGRAM FILES (X86)\MICROSOFT VISUAL STUDIO\2017\COMMUNITY\VC\TOOLS\MSVC\14.12.25827\LIB\X86\MSVCPRT.LIB
C:\PROGRAM FILES (X86)\MICROSOFT VISUAL STUDIO\2017\COMMUNITY\VC\TOOLS\MSVC\14.12.25827\LIB\X86\MSVCRT.LIB
C:\PROGRAM FILES (X86)\MICROSOFT VISUAL STUDIO\2017\COMMUNITY\VC\TOOLS\MSVC\14.12.25827\LIB\X86\OLDNAMES.LIB
C:\PROGRAM FILES (X86)\MICROSOFT VISUAL STUDIO\2017\COMMUNITY\VC\TOOLS\MSVC\14.12.25827\LIB\X86\VCRUNTIME.LIB
C:\PROGRAM FILES (X86)\WINDOWS KITS\10\LIB\10.0.16299.0\UCRT\X86\UCRT.LIB
C:\PROGRAM FILES (X86)\MICROSOFT VISUAL STUDIO\2017\COMMUNITY\VC\TOOLS\MSVC\14.12.25827\BIN\HOSTX86\X86\1033\LINKUI.DLL
C:\PROGRAM FILES (X86)\WINDOWS KITS\10\BIN\10.0.16299.0\X86\RC.EXE
C:\PROGRAM FILES (X86)\MICROSOFT VISUAL STUDIO\2017\COMMUNITY\VC\TOOLS\MSVC\14.12.25827\BIN\HOSTX86\X86\CVTRES.EXE
C:\WINDOWS\SYSTEM32\TZRES.DLL
