# Blender v2.79 (sub 0) OBJ File: 'Ghost.blend'
# www.blender.org
mtllib Ghost.mtl
o Cylinder
v 1.000000 0.000000 -1.298478
v 0.000000 -0.000000 1.029005
v 0.980785 -0.195090 -0.973650
v 0.923880 -0.382683 -1.298478
v 0.831470 -0.555570 -0.973650
v 0.707107 -0.707107 -1.298478
v 0.555570 -0.831470 -0.973650
v 0.382683 -0.923880 -1.298478
v 0.195090 -0.980785 -0.973650
v 0.000000 -1.000000 -1.298478
v -0.195090 -0.980785 -0.973650
v -0.382683 -0.923880 -1.298478
v -0.555570 -0.831470 -0.973650
v -0.707107 -0.707107 -1.298478
v -0.831470 -0.555570 -0.973650
v -0.923880 -0.382683 -1.298478
v -0.980785 -0.195090 -0.973650
v -1.000000 0.000000 -1.298478
v -0.980785 0.195091 -0.973650
v -0.923879 0.382684 -1.298478
v -0.831469 0.555571 -0.973650
v -0.707106 0.707107 -1.298478
v -0.555570 0.831470 -0.973650
v -0.382683 0.923880 -1.298478
v -0.195089 0.980785 -0.973650
v 0.000001 1.000000 -1.298478
v 0.195091 0.980785 -0.973650
v 0.382684 0.923879 -1.298478
v 0.555571 0.831469 -0.973650
v 0.707108 0.707106 -1.298478
v 0.831470 0.555569 -0.973650
v 0.923880 0.382682 -1.298478
v 0.980786 0.195089 -0.973650
v 0.151634 -0.000000 1.029956
v 0.148721 -0.029582 1.029956
v 0.140092 -0.058028 1.029956
v 0.126079 -0.084243 1.029956
v 0.107222 -0.107221 1.029956
v 0.084244 -0.126079 1.029956
v 0.058028 -0.140092 1.029956
v 0.029583 -0.148720 1.029956
v 0.000000 -0.151634 1.029956
v -0.029582 -0.148721 1.029956
v -0.058028 -0.140092 1.029956
v -0.084243 -0.126079 1.029956
v -0.107221 -0.107221 1.029956
v -0.126079 -0.084243 1.029956
v -0.140091 -0.058028 1.029956
v -0.148720 -0.029582 1.029956
v -0.151634 -0.000000 1.029956
v -0.148720 0.029582 1.029956
v -0.140091 0.058028 1.029956
v -0.126079 0.084243 1.029956
v -0.107221 0.107221 1.029956
v -0.084243 0.126079 1.029956
v -0.058027 0.140092 1.029956
v -0.029582 0.148720 1.029956
v 0.000000 0.151634 1.029956
v 0.029583 0.148720 1.029956
v 0.058028 0.140091 1.029956
v 0.084244 0.126079 1.029956
v 0.107222 0.107221 1.029956
v 0.126079 0.084243 1.029956
v 0.140092 0.058028 1.029956
v 0.148721 0.029582 1.029956
v 0.394992 -0.078569 0.955607
v 0.372075 -0.154118 0.955607
v 0.334858 -0.223745 0.955607
v 0.284774 -0.284774 0.955607
v 0.223745 -0.334858 0.955607
v 0.154119 -0.372075 0.955607
v 0.078569 -0.394992 0.955607
v 0.000000 -0.402731 0.955607
v -0.078569 -0.394992 0.955607
v -0.154118 -0.372075 0.955607
v -0.223745 -0.334858 0.955607
v -0.284773 -0.284774 0.955607
v -0.334858 -0.223745 0.955607
v -0.372074 -0.154118 0.955607
v -0.394992 -0.078569 0.955607
v -0.402730 0.000000 0.955607
v -0.394992 0.078569 0.955607
v -0.372074 0.154118 0.955607
v -0.334858 0.223745 0.955607
v -0.284773 0.284774 0.955607
v -0.223745 0.334858 0.955607
v -0.154118 0.372075 0.955607
v -0.078568 0.394992 0.955607
v 0.000001 0.402730 0.955607
v 0.078569 0.394992 0.955607
v 0.154119 0.372074 0.955607
v 0.223746 0.334858 0.955607
v 0.284774 0.284773 0.955607
v 0.334859 0.223745 0.955607
v 0.372075 0.154118 0.955607
v 0.394993 0.078568 0.955607
v 0.402731 -0.000000 0.955607
v 0.836501 -0.166390 0.513982
v 0.787967 -0.326386 0.513982
v 0.709151 -0.473840 0.513982
v 0.603084 -0.603084 0.513982
v 0.473840 -0.709151 0.513982
v 0.326387 -0.787967 0.513982
v 0.166390 -0.836501 0.513982
v 0.000000 -0.852889 0.513982
v -0.166390 -0.836501 0.513982
v -0.326386 -0.787967 0.513982
v -0.473840 -0.709151 0.513982
v -0.603083 -0.603084 0.513982
v -0.709151 -0.473840 0.513982
v -0.787967 -0.326386 0.513981
v -0.836501 -0.166390 0.513982
v -0.852889 0.000000 0.513981
v -0.836501 0.166391 0.513981
v -0.787966 0.326387 0.513981
v -0.709151 0.473840 0.513982
v -0.603083 0.603084 0.513982
v -0.473839 0.709152 0.513981
v -0.326386 0.787967 0.513981
v -0.166390 0.836501 0.513982
v 0.000001 0.852889 0.513982
v 0.166391 0.836501 0.513982
v 0.326387 0.787966 0.513982
v 0.473841 0.709151 0.513982
v 0.603084 0.603083 0.513982
v 0.709152 0.473839 0.513982
v 0.787967 0.326385 0.513982
v 0.836501 0.166389 0.513982
v 0.852889 -0.000000 0.513981
v 0.980785 -0.195090 0.170175
v 0.923880 -0.382683 0.170175
v 0.831470 -0.555570 0.170175
v 0.707107 -0.707107 0.170175
v 0.555570 -0.831470 0.170175
v 0.382683 -0.923880 0.170175
v 0.195090 -0.980785 0.170175
v 0.000000 -1.000000 0.170175
v -0.195090 -0.980785 0.170175
v -0.382683 -0.923880 0.170175
v -0.555570 -0.831470 0.170175
v -0.707107 -0.707107 0.170175
v -0.831470 -0.555570 0.170175
v -0.923880 -0.382683 0.170175
v -0.980785 -0.195090 0.170175
v -1.000000 0.000000 0.170175
v -0.980785 0.195091 0.170175
v -0.923879 0.382684 0.170175
v -0.831469 0.555571 0.170175
v -0.707106 0.707107 0.170175
v -0.555570 0.831470 0.170175
v -0.382683 0.923880 0.170175
v -0.195089 0.980785 0.170175
v 0.000001 1.000000 0.170175
v 0.195091 0.980785 0.170175
v 0.382684 0.923879 0.170175
v 0.555571 0.831469 0.170175
v 0.707108 0.707106 0.170175
v 0.831470 0.555569 0.170175
v 0.923880 0.382682 0.170175
v 0.980786 0.195089 0.170175
v 1.000000 0.000000 0.170175
v 0.639744 -0.000000 0.786442
v 0.627451 -0.124808 0.786442
v 0.591046 -0.244819 0.786442
v 0.531927 -0.355422 0.786442
v 0.452367 -0.452367 0.786442
v 0.355422 -0.531927 0.786442
v 0.244819 -0.591046 0.786442
v 0.124808 -0.627451 0.786442
v 0.000000 -0.639743 0.786442
v -0.124808 -0.627451 0.786442
v -0.244819 -0.591046 0.786442
v -0.355422 -0.531927 0.786442
v -0.452367 -0.452367 0.786442
v -0.531927 -0.355422 0.786442
v -0.591046 -0.244819 0.786442
v -0.627451 -0.124808 0.786442
v -0.639743 0.000000 0.786442
v -0.627451 0.124808 0.786442
v -0.591046 0.244819 0.786442
v -0.531927 0.355423 0.786442
v -0.452367 0.452367 0.786442
v -0.355422 0.531927 0.786442
v -0.244819 0.591046 0.786442
v -0.124807 0.627451 0.786442
v 0.000001 0.639743 0.786442
v 0.124809 0.627451 0.786442
v 0.244820 0.591045 0.786442
v 0.355423 0.531927 0.786442
v 0.452368 0.452366 0.786442
v 0.531928 0.355422 0.786442
v 0.591046 0.244818 0.786442
v 0.627451 0.124807 0.786442
v 0.264127 -0.000000 1.007097
v 0.259052 -0.051529 1.007097
v 0.244021 -0.101077 1.007097
v 0.219613 -0.146741 1.007097
v 0.186766 -0.186766 1.007097
v 0.146741 -0.219613 1.007097
v 0.101077 -0.244021 1.007097
v 0.051529 -0.259052 1.007097
v 0.000000 -0.264127 1.007097
v -0.051528 -0.259052 1.007097
v -0.101077 -0.244021 1.007097
v -0.146741 -0.219613 1.007097
v -0.186765 -0.186766 1.007097
v -0.219613 -0.146741 1.007097
v -0.244021 -0.101077 1.007097
v -0.259051 -0.051529 1.007097
v -0.264126 0.000000 1.007097
v -0.259051 0.051529 1.007097
v -0.244021 0.101077 1.007097
v -0.219613 0.146741 1.007097
v -0.186765 0.186766 1.007097
v -0.146740 0.219613 1.007097
v -0.101076 0.244021 1.007097
v -0.051528 0.259051 1.007097
v 0.000001 0.264127 1.007097
v 0.051529 0.259051 1.007097
v 0.101077 0.244021 1.007097
v 0.146741 0.219613 1.007097
v 0.186766 0.186765 1.007097
v 0.219614 0.146741 1.007097
v 0.244022 0.101076 1.007097
v 0.259052 0.051528 1.007097
v 0.084655 -0.000000 1.036294
v 0.083029 -0.016515 1.036294
v 0.078211 -0.032396 1.036294
v 0.070388 -0.047032 1.036294
v 0.059860 -0.059860 1.036294
v 0.047032 -0.070388 1.036294
v 0.032396 -0.078211 1.036294
v 0.016516 -0.083028 1.036294
v 0.000000 -0.084655 1.036294
v -0.016515 -0.083028 1.036294
v -0.032396 -0.078211 1.036294
v -0.047031 -0.070388 1.036294
v -0.059860 -0.059860 1.036294
v -0.070388 -0.047032 1.036294
v -0.078211 -0.032396 1.036294
v -0.083028 -0.016515 1.036294
v -0.084655 -0.000000 1.036294
v -0.083028 0.016515 1.036294
v -0.078211 0.032396 1.036294
v -0.070388 0.047032 1.036294
v -0.059860 0.059860 1.036294
v -0.047031 0.070388 1.036294
v -0.032396 0.078211 1.036294
v -0.016515 0.083028 1.036294
v 0.000000 0.084655 1.036294
v 0.016516 0.083028 1.036294
v 0.032396 0.078211 1.036294
v 0.047032 0.070388 1.036294
v 0.059860 0.059860 1.036294
v 0.070388 0.047032 1.036294
v 0.078211 0.032396 1.036294
v 0.083029 0.016515 1.036294
vt 0.505064 0.498839
vt 0.499981 0.499911
vt 0.504757 0.497868
vt 0.504267 0.496975
vt 0.503612 0.496195
vt 0.502818 0.495558
vt 0.501914 0.495087
vt 0.500936 0.494803
vt 0.499921 0.494715
vt 0.498908 0.494826
vt 0.497937 0.495133
vt 0.497044 0.495624
vt 0.496265 0.496279
vt 0.495628 0.497074
vt 0.495158 0.497978
vt 0.494873 0.498956
vt 0.494785 0.499971
vt 0.494897 0.500983
vt 0.495204 0.501954
vt 0.495695 0.502847
vt 0.496350 0.503627
vt 0.497145 0.504264
vt 0.498048 0.504734
vt 0.499026 0.505018
vt 0.500041 0.505106
vt 0.501053 0.504995
vt 0.502024 0.504688
vt 0.502917 0.504197
vt 0.503696 0.503542
vt 0.504333 0.502748
vt 0.504803 0.501844
vt 0.505087 0.500867
vt 0.505175 0.499852
vt 0.514562 0.499748
vt 0.523830 0.494906
vt 0.524327 0.499656
vt 0.514313 0.502595
vt 0.523912 0.504407
vt 0.513514 0.505339
vt 0.522577 0.508987
vt 0.512196 0.507874
vt 0.520375 0.513220
vt 0.510408 0.510104
vt 0.517389 0.516942
vt 0.508220 0.511942
vt 0.513733 0.520011
vt 0.505715 0.513318
vt 0.509548 0.522308
vt 0.502990 0.514179
vt 0.504996 0.523744
vt 0.500149 0.514493
vt 0.500251 0.524265
vt 0.497301 0.514245
vt 0.495495 0.523849
vt 0.490911 0.522514
vt 0.492020 0.512129
vt 0.486676 0.520310
vt 0.482952 0.517323
vt 0.487950 0.508152
vt 0.479882 0.513666
vt 0.486574 0.505647
vt 0.477585 0.509480
vt 0.476148 0.504926
vt 0.475628 0.500180
vt 0.485712 0.502921
vt 0.476043 0.495423
vt 0.485399 0.500079
vt 0.486444 0.494486
vt 0.477378 0.490839
vt 0.479582 0.486603
vt 0.489551 0.489718
vt 0.482570 0.482878
vt 0.486228 0.479808
vt 0.494245 0.486502
vt 0.490414 0.477511
vt 0.494968 0.476074
vt 0.499813 0.485327
vt 0.499715 0.475553
vt 0.504473 0.475968
vt 0.505408 0.486373
vt 0.509059 0.477304
vt 0.513296 0.479509
vt 0.510175 0.489481
vt 0.517022 0.482498
vt 0.520094 0.486158
vt 0.522393 0.490347
vt 0.512014 0.491671
vt 0.514251 0.496905
vt 0.536075 0.492377
vt 0.560517 0.474379
vt 0.564321 0.486667
vt 0.533898 0.485482
vt 0.554382 0.463066
vt 0.530423 0.479145
vt 0.546155 0.453166
vt 0.525781 0.473608
vt 0.536152 0.445059
vt 0.513747 0.465743
vt 0.524759 0.439059
vt 0.512413 0.435396
vt 0.499623 0.463081
vt 0.499590 0.434212
vt 0.492445 0.463861
vt 0.486781 0.435552
vt 0.485557 0.466026
vt 0.474481 0.439364
vt 0.463159 0.445503
vt 0.473689 0.474128
vt 0.453253 0.453733
vt 0.445142 0.463736
vt 0.465825 0.486155
vt 0.439140 0.475130
vt 0.435474 0.487476
vt 0.463798 0.493084
vt 0.434289 0.500299
vt 0.463161 0.500275
vt 0.435626 0.513108
vt 0.466104 0.514340
vt 0.439438 0.525409
vt 0.445576 0.536731
vt 0.469570 0.520672
vt 0.453805 0.546637
vt 0.479831 0.530731
vt 0.463808 0.554748
vt 0.475202 0.560750
vt 0.486231 0.534071
vt 0.487548 0.564416
vt 0.493159 0.536097
vt 0.500371 0.565600
vt 0.500349 0.536733
vt 0.513179 0.564261
vt 0.507526 0.535954
vt 0.525480 0.560448
vt 0.514411 0.533790
vt 0.536800 0.554308
vt 0.520742 0.530324
vt 0.546705 0.546077
vt 0.526275 0.525690
vt 0.554815 0.536070
vt 0.530796 0.520065
vt 0.560817 0.524672
vt 0.534131 0.513668
vt 0.564482 0.512318
vt 0.536151 0.506745
vt 0.565671 0.499478
vt 0.599445 0.499765
vt 0.644754 0.471554
vt 0.646931 0.500396
vt 0.597568 0.519174
vt 0.644584 0.529118
vt 0.591920 0.537849
vt 0.635555 0.556603
vt 0.582759 0.555062
vt 0.622393 0.582242
vt 0.570396 0.570152
vt 0.603531 0.604178
vt 0.555346 0.582548
vt 0.581558 0.622827
vt 0.538150 0.591756
vt 0.555738 0.635872
vt 0.519503 0.597447
vt 0.528302 0.644690
vt 0.500093 0.599374
vt 0.499457 0.646860
vt 0.480688 0.597495
vt 0.470736 0.644507
vt 0.462019 0.591846
vt 0.443257 0.635472
vt 0.417625 0.622307
vt 0.429725 0.570320
vt 0.395696 0.603444
vt 0.417334 0.555269
vt 0.377053 0.581472
vt 0.408128 0.538074
vt 0.364013 0.555654
vt 0.402439 0.519427
vt 0.355198 0.528220
vt 0.353031 0.499377
vt 0.402395 0.480614
vt 0.355385 0.470660
vt 0.408045 0.461946
vt 0.364420 0.443183
vt 0.417207 0.444739
vt 0.377585 0.417553
vt 0.429570 0.429653
vt 0.396446 0.395626
vt 0.418416 0.376985
vt 0.461814 0.408056
vt 0.444231 0.363944
vt 0.480459 0.402366
vt 0.471662 0.355129
vt 0.499867 0.400440
vt 0.500501 0.352959
vt 0.529216 0.355311
vt 0.537936 0.407965
vt 0.556690 0.364341
vt 0.582318 0.377500
vt 0.570226 0.429482
vt 0.604245 0.396355
vt 0.622888 0.418319
vt 0.591824 0.461716
vt 0.635932 0.444128
vt 0.597516 0.480356
vt 0.860130 0.350832
vt 0.999845 0.400439
vt 0.923702 0.216741
vt 0.775657 0.224376
vt 0.783078 0.076170
vt 0.649237 0.139868
vt 0.599382 0.000100
vt 0.500107 0.110158
vt 0.400562 0.000100
vt 0.350955 0.139768
vt 0.216866 0.076175
vt 0.224480 0.224198
vt 0.076253 0.216755
vt 0.139932 0.350605
vt 0.000132 0.400453
vt 0.110190 0.499751
vt 0.000100 0.599308
vt 0.139787 0.648935
vt 0.076173 0.783051
vt 0.224227 0.775443
vt 0.216781 0.923702
vt 0.350660 0.860011
vt 0.400524 0.999839
vt 0.499842 0.889753
vt 0.599426 0.999855
vt 0.649053 0.860131
vt 0.783192 0.923737
vt 0.775566 0.775653
vt 0.923825 0.783078
vt 0.860104 0.649185
vt 0.999900 0.599311
vt 0.889792 0.500001
vt 0.444811 0.582683
vt 0.400515 0.500018
vt 0.444619 0.417262
vt 0.519269 0.402318
vt 0.555142 0.417123
vt 0.582617 0.444527
vt 0.520151 0.469083
vt 0.506816 0.463717
vt 0.479224 0.469493
vt 0.469164 0.479754
vt 0.463940 0.507452
vt 0.474205 0.526207
vt 0.536776 0.499565
vt 0.494556 0.513447
vt 0.489790 0.510341
vt 0.485646 0.497231
vt 0.487763 0.491949
vt 0.491740 0.487879
vt 0.496971 0.485641
vt 0.502662 0.485575
vt 0.507944 0.487692
vt 0.513391 0.494178
vn -0.0858 0.0085 0.9963
vn -0.0825 0.0250 0.9963
vn -0.0760 0.0406 0.9963
vn -0.0666 0.0547 0.9963
vn -0.0547 0.0666 0.9963
vn -0.0406 0.0760 0.9963
vn -0.0250 0.0825 0.9963
vn -0.0085 0.0858 0.9963
vn 0.0085 0.0858 0.9963
vn 0.0250 0.0825 0.9963
vn 0.0406 0.0760 0.9963
vn 0.0547 0.0666 0.9963
vn 0.0666 0.0547 0.9963
vn 0.0760 0.0406 0.9963
vn 0.0825 0.0250 0.9963
vn 0.0858 0.0084 0.9963
vn 0.0858 -0.0084 0.9963
vn 0.0825 -0.0250 0.9963
vn 0.0760 -0.0406 0.9963
vn 0.0666 -0.0547 0.9963
vn 0.0547 -0.0666 0.9963
vn 0.0406 -0.0760 0.9963
vn 0.0250 -0.0825 0.9963
vn 0.0085 -0.0858 0.9963
vn -0.0085 -0.0858 0.9963
vn -0.0250 -0.0825 0.9963
vn -0.0406 -0.0760 0.9963
vn -0.0547 -0.0666 0.9963
vn -0.0666 -0.0547 0.9963
vn -0.0760 -0.0406 0.9963
vn -0.0825 -0.0250 0.9963
vn -0.0858 -0.0085 0.9963
vn 0.1991 0.0196 0.9798
vn 0.1914 0.0581 0.9798
vn 0.1764 0.0943 0.9798
vn 0.1546 0.1269 0.9798
vn 0.1269 0.1546 0.9798
vn 0.0943 0.1764 0.9798
vn 0.0581 0.1914 0.9798
vn 0.0196 0.1991 0.9798
vn -0.0196 0.1991 0.9798
vn -0.0581 0.1914 0.9798
vn -0.0943 0.1764 0.9798
vn -0.1269 0.1546 0.9798
vn -0.1546 0.1269 0.9798
vn -0.1764 0.0943 0.9798
vn -0.1914 0.0581 0.9798
vn -0.1991 0.0196 0.9798
vn -0.1991 -0.0196 0.9798
vn -0.1914 -0.0581 0.9798
vn -0.1764 -0.0943 0.9798
vn -0.1546 -0.1269 0.9798
vn -0.1269 -0.1546 0.9798
vn -0.0943 -0.1764 0.9798
vn -0.0581 -0.1914 0.9798
vn -0.0196 -0.1991 0.9798
vn 0.0196 -0.1991 0.9798
vn 0.0581 -0.1914 0.9798
vn 0.0943 -0.1764 0.9798
vn 0.1269 -0.1546 0.9798
vn 0.1546 -0.1269 0.9798
vn 0.1764 -0.0943 0.9798
vn 0.1914 -0.0581 0.9798
vn 0.1991 -0.0196 0.9798
vn 0.5800 -0.0571 0.8126
vn 0.5577 -0.1692 0.8126
vn 0.5140 -0.2747 0.8126
vn 0.4505 -0.3697 0.8126
vn 0.3697 -0.4505 0.8126
vn 0.2747 -0.5140 0.8126
vn 0.1692 -0.5577 0.8126
vn 0.0571 -0.5800 0.8126
vn -0.0571 -0.5800 0.8126
vn -0.1692 -0.5577 0.8126
vn -0.2747 -0.5140 0.8126
vn -0.3697 -0.4505 0.8126
vn -0.4505 -0.3697 0.8126
vn -0.5140 -0.2747 0.8126
vn -0.5577 -0.1692 0.8126
vn -0.5800 -0.0571 0.8126
vn -0.5800 0.0571 0.8126
vn -0.5577 0.1692 0.8126
vn -0.5140 0.2747 0.8126
vn -0.4505 0.3697 0.8126
vn -0.3697 0.4505 0.8126
vn -0.2747 0.5140 0.8126
vn -0.1692 0.5577 0.8126
vn -0.0571 0.5800 0.8126
vn 0.0571 0.5800 0.8126
vn 0.1692 0.5577 0.8126
vn 0.2747 0.5140 0.8126
vn 0.3697 0.4505 0.8126
vn 0.4505 0.3697 0.8126
vn 0.5140 0.2747 0.8126
vn 0.5577 0.1692 0.8126
vn 0.5800 0.0571 0.8126
vn 0.9156 0.0902 0.3918
vn 0.8804 0.2671 0.3918
vn 0.8114 0.4337 0.3918
vn 0.7112 0.5837 0.3918
vn 0.5837 0.7112 0.3918
vn 0.4337 0.8114 0.3918
vn 0.2671 0.8804 0.3918
vn 0.0902 0.9156 0.3918
vn -0.0902 0.9156 0.3918
vn -0.2671 0.8804 0.3918
vn -0.4337 0.8114 0.3918
vn -0.5837 0.7112 0.3918
vn -0.7112 0.5837 0.3918
vn -0.8114 0.4337 0.3918
vn -0.8804 0.2671 0.3918
vn -0.9156 0.0902 0.3918
vn -0.9156 -0.0902 0.3918
vn -0.8804 -0.2671 0.3918
vn -0.8114 -0.4337 0.3918
vn -0.7112 -0.5837 0.3918
vn -0.5837 -0.7112 0.3918
vn -0.4337 -0.8114 0.3918
vn -0.2671 -0.8804 0.3918
vn -0.0902 -0.9156 0.3918
vn 0.0902 -0.9156 0.3918
vn 0.2671 -0.8804 0.3918
vn 0.4337 -0.8114 0.3918
vn 0.5837 -0.7112 0.3918
vn 0.7112 -0.5837 0.3918
vn 0.8114 -0.4337 0.3918
vn 0.8804 -0.2671 0.3918
vn 0.9156 -0.0902 0.3918
vn 0.9952 -0.0980 0.0000
vn 0.9569 -0.2903 0.0000
vn 0.8819 -0.4714 0.0000
vn 0.7730 -0.6344 0.0000
vn 0.6344 -0.7730 0.0000
vn 0.4714 -0.8819 0.0000
vn 0.2903 -0.9569 0.0000
vn 0.0980 -0.9952 0.0000
vn -0.0980 -0.9952 0.0000
vn -0.2903 -0.9569 0.0000
vn -0.4714 -0.8819 0.0000
vn -0.6344 -0.7730 0.0000
vn -0.7730 -0.6344 0.0000
vn -0.8819 -0.4714 0.0000
vn -0.9569 -0.2903 0.0000
vn -0.9952 -0.0980 0.0000
vn -0.9952 0.0980 0.0000
vn -0.9569 0.2903 0.0000
vn -0.8819 0.4714 0.0000
vn -0.7730 0.6344 0.0000
vn -0.6344 0.7730 0.0000
vn -0.4714 0.8819 0.0000
vn -0.2903 0.9569 0.0000
vn -0.0980 0.9952 0.0000
vn 0.0980 0.9952 0.0000
vn 0.2903 0.9569 0.0000
vn 0.4714 0.8819 0.0000
vn 0.6344 0.7730 0.0000
vn 0.7730 0.6344 0.0000
vn 0.8819 0.4714 0.0000
vn 0.9569 0.2903 0.0000
vn 0.9952 0.0980 0.0000
vn 0.7853 0.0773 0.6143
vn 0.7551 0.2291 0.6143
vn 0.6959 0.3720 0.6143
vn 0.6100 0.5006 0.6143
vn 0.5006 0.6100 0.6143
vn 0.3720 0.6959 0.6143
vn 0.2291 0.7551 0.6143
vn 0.0773 0.7853 0.6143
vn -0.0773 0.7853 0.6143
vn -0.2291 0.7551 0.6143
vn -0.3720 0.6959 0.6143
vn -0.5006 0.6100 0.6143
vn -0.6100 0.5006 0.6143
vn -0.6959 0.3720 0.6143
vn -0.7551 0.2291 0.6143
vn -0.7853 0.0773 0.6143
vn -0.7853 -0.0773 0.6143
vn -0.7551 -0.2291 0.6143
vn -0.6959 -0.3720 0.6143
vn -0.6100 -0.5006 0.6143
vn -0.5006 -0.6100 0.6143
vn -0.3720 -0.6959 0.6143
vn -0.2291 -0.7551 0.6143
vn -0.0773 -0.7853 0.6143
vn 0.0773 -0.7853 0.6143
vn 0.2291 -0.7551 0.6143
vn 0.3720 -0.6959 0.6143
vn 0.5006 -0.6100 0.6143
vn 0.6100 -0.5006 0.6143
vn 0.6959 -0.3720 0.6143
vn 0.7551 -0.2291 0.6143
vn 0.7853 -0.0773 0.6143
vn 0.3480 -0.0343 0.9369
vn 0.3347 -0.1015 0.9369
vn 0.3084 -0.1649 0.9369
vn 0.2703 -0.2219 0.9369
vn 0.2219 -0.2703 0.9369
vn 0.1649 -0.3084 0.9369
vn 0.1015 -0.3347 0.9369
vn 0.0343 -0.3480 0.9369
vn -0.0343 -0.3480 0.9369
vn -0.1015 -0.3347 0.9369
vn -0.1649 -0.3084 0.9369
vn -0.2219 -0.2703 0.9369
vn -0.2703 -0.2219 0.9369
vn -0.3084 -0.1649 0.9369
vn -0.3347 -0.1015 0.9369
vn -0.3480 -0.0343 0.9369
vn -0.3480 0.0343 0.9369
vn -0.3347 0.1015 0.9369
vn -0.3084 0.1649 0.9369
vn -0.2703 0.2219 0.9369
vn -0.2219 0.2703 0.9369
vn -0.1649 0.3084 0.9369
vn -0.1015 0.3347 0.9369
vn -0.0343 0.3480 0.9369
vn 0.0343 0.3480 0.9369
vn 0.1015 0.3347 0.9369
vn 0.1649 0.3084 0.9369
vn 0.2219 0.2703 0.9369
vn 0.2703 0.2219 0.9369
vn 0.3084 0.1649 0.9369
vn 0.3347 0.1015 0.9369
vn 0.3480 0.0343 0.9369
vn 0.0942 0.0093 0.9955
vn 0.0906 0.0275 0.9955
vn 0.0835 0.0446 0.9955
vn 0.0732 0.0601 0.9955
vn 0.0601 0.0732 0.9955
vn 0.0446 0.0835 0.9955
vn 0.0275 0.0906 0.9955
vn 0.0093 0.0942 0.9955
vn -0.0093 0.0942 0.9955
vn -0.0275 0.0906 0.9955
vn -0.0446 0.0835 0.9955
vn -0.0601 0.0732 0.9955
vn -0.0732 0.0601 0.9955
vn -0.0835 0.0446 0.9955
vn -0.0906 0.0275 0.9955
vn -0.0942 0.0093 0.9955
vn -0.0942 -0.0093 0.9955
vn -0.0906 -0.0275 0.9955
vn -0.0835 -0.0446 0.9955
vn -0.0732 -0.0601 0.9955
vn -0.0601 -0.0732 0.9955
vn -0.0446 -0.0835 0.9955
vn -0.0275 -0.0906 0.9955
vn -0.0093 -0.0942 0.9955
vn 0.0093 -0.0942 0.9955
vn 0.0275 -0.0906 0.9955
vn 0.0446 -0.0835 0.9955
vn 0.0601 -0.0732 0.9955
vn 0.0732 -0.0601 0.9955
vn 0.0835 -0.0446 0.9955
vn 0.0906 -0.0275 0.9955
vn 0.0942 -0.0093 0.9955
usemtl None
s off
f 226/1/1 2/2/1 227/3/1
f 227/3/2 2/2/2 228/4/2
f 228/4/3 2/2/3 229/5/3
f 229/5/4 2/2/4 230/6/4
f 230/6/5 2/2/5 231/7/5
f 231/7/6 2/2/6 232/8/6
f 232/8/7 2/2/7 233/9/7
f 233/9/8 2/2/8 234/10/8
f 234/10/9 2/2/9 235/11/9
f 235/11/10 2/2/10 236/12/10
f 236/12/11 2/2/11 237/13/11
f 237/13/12 2/2/12 238/14/12
f 238/14/13 2/2/13 239/15/13
f 239/15/14 2/2/14 240/16/14
f 240/16/15 2/2/15 241/17/15
f 241/17/16 2/2/16 242/18/16
f 242/18/17 2/2/17 243/19/17
f 243/19/18 2/2/18 244/20/18
f 244/20/19 2/2/19 245/21/19
f 245/21/20 2/2/20 246/22/20
f 246/22/21 2/2/21 247/23/21
f 247/23/22 2/2/22 248/24/22
f 248/24/23 2/2/23 249/25/23
f 249/25/24 2/2/24 250/26/24
f 250/26/25 2/2/25 251/27/25
f 251/27/26 2/2/26 252/28/26
f 252/28/27 2/2/27 253/29/27
f 253/29/28 2/2/28 254/30/28
f 254/30/29 2/2/29 255/31/29
f 255/31/30 2/2/30 256/32/30
f 256/32/31 2/2/31 257/33/31
f 257/33/32 2/2/32 226/1/32
f 65/34/33 194/35/33 225/36/33
f 64/37/34 225/36/34 224/38/34
f 63/39/35 224/38/35 223/40/35
f 62/41/36 223/40/36 222/42/36
f 61/43/37 222/42/37 221/44/37
f 60/45/38 221/44/38 220/46/38
f 59/47/39 220/46/39 219/48/39
f 58/49/40 219/48/40 218/50/40
f 57/51/41 218/50/41 217/52/41
f 56/53/42 217/52/42 216/54/42
f 215/55/43 56/53/43 216/54/43
f 54/56/44 215/55/44 214/57/44
f 213/58/45 54/56/45 214/57/45
f 52/59/46 213/58/46 212/60/46
f 51/61/47 212/60/47 211/62/47
f 210/63/48 51/61/48 211/62/48
f 209/64/49 50/65/49 210/63/49
f 208/66/50 49/67/50 209/64/50
f 47/68/51 208/66/51 207/69/51
f 206/70/52 47/68/52 207/69/52
f 45/71/53 206/70/53 205/72/53
f 204/73/54 45/71/54 205/72/54
f 43/74/55 204/73/55 203/75/55
f 202/76/56 43/74/56 203/75/56
f 41/77/57 202/76/57 201/78/57
f 200/79/58 41/77/58 201/78/58
f 39/80/59 200/79/59 199/81/59
f 198/82/60 39/80/60 199/81/60
f 37/83/61 198/82/61 197/84/61
f 196/85/62 37/83/62 197/84/62
f 195/86/63 36/87/63 196/85/63
f 34/88/64 195/86/64 194/35/64
f 97/89/65 163/90/65 162/91/65
f 66/92/66 164/93/66 163/90/66
f 67/94/67 165/95/67 164/93/67
f 68/96/68 166/97/68 165/95/68
f 166/97/69 70/98/69 167/99/69
f 70/98/70 168/100/70 167/99/70
f 168/100/71 72/101/71 169/102/71
f 169/102/72 73/103/72 170/104/72
f 170/104/73 74/105/73 171/106/73
f 74/105/74 172/107/74 171/106/74
f 172/107/75 76/108/75 173/109/75
f 76/108/76 174/110/76 173/109/76
f 174/110/77 78/111/77 175/112/77
f 78/111/78 176/113/78 175/112/78
f 79/114/79 177/115/79 176/113/79
f 80/116/80 178/117/80 177/115/80
f 178/117/81 82/118/81 179/119/81
f 82/118/82 180/120/82 179/119/82
f 83/121/83 181/122/83 180/120/83
f 181/122/84 85/123/84 182/124/84
f 85/123/85 183/125/85 182/124/85
f 86/126/86 184/127/86 183/125/86
f 87/128/87 185/129/87 184/127/87
f 88/130/88 186/131/88 185/129/88
f 89/132/89 187/133/89 186/131/89
f 90/134/90 188/135/90 187/133/90
f 91/136/91 189/137/91 188/135/91
f 92/138/92 190/139/92 189/137/92
f 93/140/93 191/141/93 190/139/93
f 94/142/94 192/143/94 191/141/94
f 95/144/95 193/145/95 192/143/95
f 193/145/96 97/89/96 162/91/96
f 128/146/97 161/147/97 160/148/97
f 127/149/98 160/148/98 159/150/98
f 126/151/99 159/150/99 158/152/99
f 125/153/100 158/152/100 157/154/100
f 124/155/101 157/154/101 156/156/101
f 123/157/102 156/156/102 155/158/102
f 122/159/103 155/158/103 154/160/103
f 121/161/104 154/160/104 153/162/104
f 120/163/105 153/162/105 152/164/105
f 119/165/106 152/164/106 151/166/106
f 118/167/107 151/166/107 150/168/107
f 149/169/108 118/167/108 150/168/108
f 116/170/109 149/169/109 148/171/109
f 115/172/110 148/171/110 147/173/110
f 114/174/111 147/173/111 146/175/111
f 113/176/112 146/175/112 145/177/112
f 144/178/113 113/176/113 145/177/113
f 111/179/114 144/178/114 143/180/114
f 110/181/115 143/180/115 142/182/115
f 109/183/116 142/182/116 141/184/116
f 108/185/117 141/184/117 140/186/117
f 139/187/118 108/185/118 140/186/118
f 106/188/119 139/187/119 138/189/119
f 105/190/120 138/189/120 137/191/120
f 104/192/121 137/191/121 136/193/121
f 135/194/122 104/192/122 136/193/122
f 102/195/123 135/194/123 134/196/123
f 133/197/124 102/195/124 134/196/124
f 100/198/125 133/197/125 132/199/125
f 131/200/126 100/198/126 132/199/126
f 98/201/127 131/200/127 130/202/127
f 129/203/128 130/202/128 161/147/128
f 161/147/129 3/204/129 1/205/129
f 3/204/130 131/200/130 4/206/130
f 131/200/131 5/207/131 4/206/131
f 5/207/132 133/197/132 6/208/132
f 133/197/133 7/209/133 6/208/133
f 7/209/134 135/194/134 8/210/134
f 135/194/135 9/211/135 8/210/135
f 9/211/136 137/191/136 10/212/136
f 137/191/137 11/213/137 10/212/137
f 11/213/138 139/187/138 12/214/138
f 139/187/139 13/215/139 12/214/139
f 13/215/140 141/184/140 14/216/140
f 141/184/141 15/217/141 14/216/141
f 15/217/142 143/180/142 16/218/142
f 143/180/143 17/219/143 16/218/143
f 17/219/144 145/177/144 18/220/144
f 145/177/145 19/221/145 18/220/145
f 19/221/146 147/173/146 20/222/146
f 147/173/147 21/223/147 20/222/147
f 21/223/148 149/169/148 22/224/148
f 149/169/149 23/225/149 22/224/149
f 23/225/150 151/166/150 24/226/150
f 151/166/151 25/227/151 24/226/151
f 25/227/152 153/162/152 26/228/152
f 153/162/153 27/229/153 26/228/153
f 27/229/154 155/158/154 28/230/154
f 155/158/155 29/231/155 28/230/155
f 29/231/156 157/154/156 30/232/156
f 157/154/157 31/233/157 30/232/157
f 31/233/158 159/150/158 32/234/158
f 159/150/159 33/235/159 32/234/159
f 33/235/160 161/147/160 1/205/160
f 128/146/161 162/91/161 129/203/161
f 192/143/162 128/146/162 127/149/162
f 191/141/163 127/149/163 126/151/163
f 190/139/164 126/151/164 125/153/164
f 189/137/165 125/153/165 124/155/165
f 123/157/166 189/137/166 124/155/166
f 187/133/167 123/157/167 122/159/167
f 186/131/168 122/159/168 121/161/168
f 185/129/169 121/161/169 120/163/169
f 184/127/170 120/163/170 119/165/170
f 183/125/171 119/165/171 118/167/171
f 182/124/172 118/167/172 117/236/172
f 181/122/173 117/236/173 116/170/173
f 180/120/174 116/170/174 115/172/174
f 179/119/175 115/172/175 114/174/175
f 113/176/176 179/119/176 114/174/176
f 112/237/177 178/117/177 113/176/177
f 176/113/178 112/237/178 111/179/178
f 110/181/179 176/113/179 111/179/179
f 174/110/180 110/181/180 109/183/180
f 173/109/181 109/183/181 108/185/181
f 107/238/182 173/109/182 108/185/182
f 171/106/183 107/238/183 106/188/183
f 105/190/184 171/106/184 106/188/184
f 169/102/185 105/190/185 104/192/185
f 103/239/186 169/102/186 104/192/186
f 167/99/187 103/239/187 102/195/187
f 101/240/188 167/99/188 102/195/188
f 165/95/189 101/240/189 100/198/189
f 99/241/190 165/95/190 100/198/190
f 163/90/191 99/241/191 98/201/191
f 162/91/192 98/201/192 129/203/192
f 194/35/193 66/92/193 97/89/193
f 195/86/194 67/94/194 66/92/194
f 196/85/195 68/96/195 67/94/195
f 197/84/196 69/242/196 68/96/196
f 69/242/197 199/81/197 70/98/197
f 199/81/198 71/243/198 70/98/198
f 71/243/199 201/78/199 72/101/199
f 72/101/200 202/76/200 73/103/200
f 73/103/201 203/75/201 74/105/201
f 203/75/202 75/244/202 74/105/202
f 75/244/203 205/72/203 76/108/203
f 76/108/204 206/70/204 77/245/204
f 77/245/205 207/69/205 78/111/205
f 207/69/206 79/114/206 78/111/206
f 79/114/207 209/64/207 80/116/207
f 80/116/208 210/63/208 81/246/208
f 210/63/209 82/118/209 81/246/209
f 211/62/210 83/121/210 82/118/210
f 83/121/211 213/58/211 84/247/211
f 84/247/212 214/57/212 85/123/212
f 214/57/213 86/126/213 85/123/213
f 215/55/214 87/128/214 86/126/214
f 216/54/215 88/130/215 87/128/215
f 217/52/216 89/132/216 88/130/216
f 218/50/217 90/134/217 89/132/217
f 219/48/218 91/136/218 90/134/218
f 220/46/219 92/138/219 91/136/219
f 221/44/220 93/140/220 92/138/220
f 93/140/221 223/40/221 94/142/221
f 223/40/222 95/144/222 94/142/222
f 224/38/223 96/248/223 95/144/223
f 96/248/224 194/35/224 97/89/224
f 257/33/225 34/88/225 65/34/225
f 256/32/226 65/34/226 64/37/226
f 63/39/227 256/32/227 64/37/227
f 254/30/228 63/39/228 62/41/228
f 253/29/229 62/41/229 61/43/229
f 60/45/230 253/29/230 61/43/230
f 251/27/231 60/45/231 59/47/231
f 250/26/232 59/47/232 58/49/232
f 57/51/233 250/26/233 58/49/233
f 248/24/234 57/51/234 56/53/234
f 55/249/235 248/24/235 56/53/235
f 246/22/236 55/249/236 54/56/236
f 53/250/237 246/22/237 54/56/237
f 244/20/238 53/250/238 52/59/238
f 243/19/239 52/59/239 51/61/239
f 50/65/240 243/19/240 51/61/240
f 241/17/241 50/65/241 49/67/241
f 48/251/242 241/17/242 49/67/242
f 239/15/243 48/251/243 47/68/243
f 46/252/244 239/15/244 47/68/244
f 45/71/245 238/14/245 46/252/245
f 44/253/246 237/13/246 45/71/246
f 235/11/247 44/253/247 43/74/247
f 42/254/248 235/11/248 43/74/248
f 233/9/249 42/254/249 41/77/249
f 40/255/250 233/9/250 41/77/250
f 231/7/251 40/255/251 39/80/251
f 38/256/252 231/7/252 39/80/252
f 229/5/253 38/256/253 37/83/253
f 36/87/254 229/5/254 37/83/254
f 227/3/255 36/87/255 35/257/255
f 34/88/256 227/3/256 35/257/256
f 65/34/33 34/88/33 194/35/33
f 64/37/34 65/34/34 225/36/34
f 63/39/35 64/37/35 224/38/35
f 62/41/36 63/39/36 223/40/36
f 61/43/37 62/41/37 222/42/37
f 60/45/38 61/43/38 221/44/38
f 59/47/39 60/45/39 220/46/39
f 58/49/40 59/47/40 219/48/40
f 57/51/41 58/49/41 218/50/41
f 56/53/42 57/51/42 217/52/42
f 215/55/43 55/249/43 56/53/43
f 54/56/44 55/249/44 215/55/44
f 213/58/45 53/250/45 54/56/45
f 52/59/46 53/250/46 213/58/46
f 51/61/47 52/59/47 212/60/47
f 210/63/48 50/65/48 51/61/48
f 209/64/49 49/67/49 50/65/49
f 208/66/50 48/251/50 49/67/50
f 47/68/51 48/251/51 208/66/51
f 206/70/52 46/252/52 47/68/52
f 45/71/53 46/252/53 206/70/53
f 204/73/54 44/253/54 45/71/54
f 43/74/55 44/253/55 204/73/55
f 202/76/56 42/254/56 43/74/56
f 41/77/57 42/254/57 202/76/57
f 200/79/58 40/255/58 41/77/58
f 39/80/59 40/255/59 200/79/59
f 198/82/60 38/256/60 39/80/60
f 37/83/61 38/256/61 198/82/61
f 196/85/62 36/87/62 37/83/62
f 195/86/63 35/257/63 36/87/63
f 34/88/64 35/257/64 195/86/64
f 97/89/65 66/92/65 163/90/65
f 66/92/66 67/94/66 164/93/66
f 67/94/67 68/96/67 165/95/67
f 68/96/68 69/242/68 166/97/68
f 166/97/69 69/242/69 70/98/69
f 70/98/70 71/243/70 168/100/70
f 168/100/71 71/243/71 72/101/71
f 169/102/72 72/101/72 73/103/72
f 170/104/73 73/103/73 74/105/73
f 74/105/74 75/244/74 172/107/74
f 172/107/75 75/244/75 76/108/75
f 76/108/76 77/245/76 174/110/76
f 174/110/77 77/245/77 78/111/77
f 78/111/78 79/114/78 176/113/78
f 79/114/79 80/116/79 177/115/79
f 80/116/80 81/246/80 178/117/80
f 178/117/81 81/246/81 82/118/81
f 82/118/82 83/121/82 180/120/82
f 83/121/83 84/247/83 181/122/83
f 181/122/84 84/247/84 85/123/84
f 85/123/85 86/126/85 183/125/85
f 86/126/86 87/128/86 184/127/86
f 87/128/87 88/130/87 185/129/87
f 88/130/88 89/132/88 186/131/88
f 89/132/89 90/134/89 187/133/89
f 90/134/90 91/136/90 188/135/90
f 91/136/91 92/138/91 189/137/91
f 92/138/92 93/140/92 190/139/92
f 93/140/93 94/142/93 191/141/93
f 94/142/94 95/144/94 192/143/94
f 95/144/95 96/248/95 193/145/95
f 193/145/96 96/248/96 97/89/96
f 128/146/97 129/203/97 161/147/97
f 127/149/98 128/146/98 160/148/98
f 126/151/99 127/149/99 159/150/99
f 125/153/100 126/151/100 158/152/100
f 124/155/101 125/153/101 157/154/101
f 123/157/102 124/155/102 156/156/102
f 122/159/103 123/157/103 155/158/103
f 121/161/104 122/159/104 154/160/104
f 120/163/105 121/161/105 153/162/105
f 119/165/106 120/163/106 152/164/106
f 118/167/107 119/165/107 151/166/107
f 149/169/108 117/236/108 118/167/108
f 116/170/109 117/236/109 149/169/109
f 115/172/110 116/170/110 148/171/110
f 114/174/111 115/172/111 147/173/111
f 113/176/112 114/174/112 146/175/112
f 144/178/113 112/237/113 113/176/113
f 111/179/114 112/237/114 144/178/114
f 110/181/115 111/179/115 143/180/115
f 109/183/116 110/181/116 142/182/116
f 108/185/117 109/183/117 141/184/117
f 139/187/118 107/238/118 108/185/118
f 106/188/119 107/238/119 139/187/119
f 105/190/120 106/188/120 138/189/120
f 104/192/121 105/190/121 137/191/121
f 135/194/122 103/239/122 104/192/122
f 102/195/123 103/239/123 135/194/123
f 133/197/124 101/240/124 102/195/124
f 100/198/125 101/240/125 133/197/125
f 131/200/126 99/241/126 100/198/126
f 98/201/127 99/241/127 131/200/127
f 129/203/128 98/201/128 130/202/128
f 161/147/129 130/202/129 3/204/129
f 3/204/130 130/202/130 131/200/130
f 131/200/131 132/199/131 5/207/131
f 5/207/132 132/199/132 133/197/132
f 133/197/133 134/196/133 7/209/133
f 7/209/134 134/196/134 135/194/134
f 135/194/135 136/193/135 9/211/135
f 9/211/136 136/193/136 137/191/136
f 137/191/137 138/189/137 11/213/137
f 11/213/138 138/189/138 139/187/138
f 139/187/139 140/186/139 13/215/139
f 13/215/140 140/186/140 141/184/140
f 141/184/141 142/182/141 15/217/141
f 15/217/142 142/182/142 143/180/142
f 143/180/143 144/178/143 17/219/143
f 17/219/144 144/178/144 145/177/144
f 145/177/145 146/175/145 19/221/145
f 19/221/146 146/175/146 147/173/146
f 147/173/147 148/171/147 21/223/147
f 21/223/148 148/171/148 149/169/148
f 149/169/149 150/168/149 23/225/149
f 23/225/150 150/168/150 151/166/150
f 151/166/151 152/164/151 25/227/151
f 25/227/152 152/164/152 153/162/152
f 153/162/153 154/160/153 27/229/153
f 27/229/154 154/160/154 155/158/154
f 155/158/155 156/156/155 29/231/155
f 29/231/156 156/156/156 157/154/156
f 157/154/157 158/152/157 31/233/157
f 31/233/158 158/152/158 159/150/158
f 159/150/159 160/148/159 33/235/159
f 33/235/160 160/148/160 161/147/160
f 128/146/161 193/145/161 162/91/161
f 192/143/162 193/145/162 128/146/162
f 191/141/163 192/143/163 127/149/163
f 190/139/164 191/141/164 126/151/164
f 189/137/165 190/139/165 125/153/165
f 123/157/166 188/135/166 189/137/166
f 187/133/167 188/135/167 123/157/167
f 186/131/168 187/133/168 122/159/168
f 185/129/169 186/131/169 121/161/169
f 184/127/170 185/129/170 120/163/170
f 183/125/171 184/127/171 119/165/171
f 182/124/172 183/125/172 118/167/172
f 181/122/173 182/124/173 117/236/173
f 180/120/174 181/122/174 116/170/174
f 179/119/175 180/120/175 115/172/175
f 113/176/176 178/117/176 179/119/176
f 112/237/177 177/115/177 178/117/177
f 176/113/178 177/115/178 112/237/178
f 110/181/179 175/112/179 176/113/179
f 174/110/180 175/112/180 110/181/180
f 173/109/181 174/110/181 109/183/181
f 107/238/182 172/107/182 173/109/182
f 171/106/183 172/107/183 107/238/183
f 105/190/184 170/104/184 171/106/184
f 169/102/185 170/104/185 105/190/185
f 103/239/186 168/100/186 169/102/186
f 167/99/187 168/100/187 103/239/187
f 101/240/188 166/97/188 167/99/188
f 165/95/189 166/97/189 101/240/189
f 99/241/190 164/93/190 165/95/190
f 163/90/191 164/93/191 99/241/191
f 162/91/192 163/90/192 98/201/192
f 194/35/193 195/86/193 66/92/193
f 195/86/194 196/85/194 67/94/194
f 196/85/195 197/84/195 68/96/195
f 197/84/196 198/82/196 69/242/196
f 69/242/197 198/82/197 199/81/197
f 199/81/198 200/79/198 71/243/198
f 71/243/199 200/79/199 201/78/199
f 72/101/200 201/78/200 202/76/200
f 73/103/201 202/76/201 203/75/201
f 203/75/202 204/73/202 75/244/202
f 75/244/203 204/73/203 205/72/203
f 76/108/204 205/72/204 206/70/204
f 77/245/205 206/70/205 207/69/205
f 207/69/206 208/66/206 79/114/206
f 79/114/207 208/66/207 209/64/207
f 80/116/208 209/64/208 210/63/208
f 210/63/209 211/62/209 82/118/209
f 211/62/210 212/60/210 83/121/210
f 83/121/211 212/60/211 213/58/211
f 84/247/212 213/58/212 214/57/212
f 214/57/213 215/55/213 86/126/213
f 215/55/214 216/54/214 87/128/214
f 216/54/215 217/52/215 88/130/215
f 217/52/216 218/50/216 89/132/216
f 218/50/217 219/48/217 90/134/217
f 219/48/218 220/46/218 91/136/218
f 220/46/219 221/44/219 92/138/219
f 221/44/220 222/42/220 93/140/220
f 93/140/221 222/42/221 223/40/221
f 223/40/222 224/38/222 95/144/222
f 224/38/223 225/36/223 96/248/223
f 96/248/224 225/36/224 194/35/224
f 257/33/225 226/1/225 34/88/225
f 256/32/226 257/33/226 65/34/226
f 63/39/227 255/31/227 256/32/227
f 254/30/228 255/31/228 63/39/228
f 253/29/229 254/30/229 62/41/229
f 60/45/230 252/28/230 253/29/230
f 251/27/231 252/28/231 60/45/231
f 250/26/232 251/27/232 59/47/232
f 57/51/233 249/25/233 250/26/233
f 248/24/234 249/25/234 57/51/234
f 55/249/235 247/23/235 248/24/235
f 246/22/236 247/23/236 55/249/236
f 53/250/237 245/21/237 246/22/237
f 244/20/238 245/21/238 53/250/238
f 243/19/239 244/20/239 52/59/239
f 50/65/240 242/18/240 243/19/240
f 241/17/241 242/18/241 50/65/241
f 48/251/242 240/16/242 241/17/242
f 239/15/243 240/16/243 48/251/243
f 46/252/244 238/14/244 239/15/244
f 45/71/245 237/13/245 238/14/245
f 44/253/246 236/12/246 237/13/246
f 235/11/247 236/12/247 44/253/247
f 42/254/248 234/10/248 235/11/248
f 233/9/249 234/10/249 42/254/249
f 40/255/250 232/8/250 233/9/250
f 231/7/251 232/8/251 40/255/251
f 38/256/252 230/6/252 231/7/252
f 229/5/253 230/6/253 38/256/253
f 36/87/254 228/4/254 229/5/254
f 227/3/255 228/4/255 36/87/255
f 34/88/256 226/1/256 227/3/256
