# Blender v2.79 (sub 0) OBJ File: 'Pacman.blend'
# www.blender.org
mtllib PacMan3.mtl
o Sphere.002_Sphere.007
v 0.000000 0.195090 0.980785
v 0.000000 0.382683 0.923880
v 0.000000 0.555570 0.831470
v 0.000000 0.707107 0.707107
v 0.000000 0.831470 0.555570
v 0.000000 0.923880 0.382683
v 0.000000 0.980785 0.195090
v 0.000000 1.000000 0.000000
v 0.000000 0.980785 -0.195090
v 0.000000 0.555570 -0.831470
v 0.038060 0.191342 0.980785
v 0.074658 0.375330 0.923880
v 0.108386 0.544895 0.831470
v 0.137950 0.693520 0.707107
v 0.162212 0.815493 0.555570
v 0.180240 0.906127 0.382683
v 0.191342 0.961940 0.195090
v 0.195090 0.980785 0.000000
v 0.191342 0.961940 -0.195090
v 0.180240 0.906127 -0.382683
v 0.162212 0.815493 -0.555570
v 0.137950 0.693520 -0.707107
v 0.108386 0.544895 -0.831470
v 0.074658 0.375330 -0.923880
v 0.038060 0.191341 -0.980785
v 0.000000 -0.000000 -1.000000
v 0.038060 -0.191342 0.980785
v 0.074658 -0.375331 0.923880
v 0.108386 -0.544896 0.831470
v 0.137950 -0.693520 0.707107
v 0.162212 -0.815493 0.555570
v 0.180240 -0.906128 0.382683
v 0.191342 -0.961940 0.195090
v 0.195090 -0.980786 0.000000
v 0.191342 -0.961940 -0.195090
v 0.180240 -0.906128 -0.382683
v 0.162212 -0.815493 -0.555570
v 0.137950 -0.693520 -0.707107
v 0.108386 -0.544895 -0.831470
v 0.074658 -0.375331 -0.923880
v 0.038060 -0.191342 -0.980785
v -0.000000 -0.195091 0.980785
v 0.000000 -0.382684 0.923880
v 0.000000 -0.555571 0.831470
v -0.000000 -0.707107 0.707107
v -0.000000 -0.831470 0.555570
v 0.000000 -0.923880 0.382683
v -0.000000 -0.980785 0.195090
v -0.000000 -1.000000 0.000000
v -0.000000 -0.980785 -0.195090
v 0.000000 -0.923880 -0.382683
v -0.000000 -0.831470 -0.555570
v -0.000000 -0.707107 -0.707107
v -0.000000 -0.555570 -0.831470
v 0.000000 -0.382684 -0.923880
v 0.000000 -0.195091 -0.980785
v -0.038060 -0.191342 0.980785
v -0.074658 -0.375331 0.923880
v -0.108386 -0.544896 0.831470
v -0.137950 -0.693520 0.707107
v -0.162212 -0.815493 0.555570
v -0.180240 -0.906128 0.382683
v -0.191342 -0.961940 0.195090
v -0.195090 -0.980786 0.000000
v -0.191342 -0.961940 -0.195090
v -0.180240 -0.906128 -0.382683
v -0.162212 -0.815493 -0.555570
v -0.137950 -0.693520 -0.707107
v -0.108386 -0.544895 -0.831470
v -0.074658 -0.375331 -0.923880
v -0.038060 -0.191342 -0.980785
v -0.074658 -0.180240 0.980785
v -0.146447 -0.353554 0.923880
v -0.212608 -0.513280 0.831470
v -0.270598 -0.653282 0.707107
v -0.318190 -0.768178 0.555570
v -0.353553 -0.853554 0.382683
v -0.375330 -0.906127 0.195090
v -0.382684 -0.923880 0.000000
v -0.375330 -0.906127 -0.195090
v -0.353553 -0.853554 -0.382683
v -0.318190 -0.768178 -0.555570
v -0.270598 -0.653282 -0.707107
v -0.212608 -0.513280 -0.831470
v -0.146447 -0.353554 -0.923880
v -0.074658 -0.180240 -0.980785
v -0.108386 -0.162212 0.980785
v -0.212608 -0.318190 0.923880
v -0.308658 -0.461940 0.831470
v -0.392847 -0.587938 0.707107
v -0.461940 -0.691342 0.555570
v -0.513280 -0.768178 0.382683
v -0.544895 -0.815493 0.195090
v -0.555570 -0.831470 0.000000
v -0.544895 -0.815493 -0.195090
v -0.513280 -0.768178 -0.382683
v -0.461940 -0.691342 -0.555570
v -0.392847 -0.587938 -0.707107
v -0.308658 -0.461940 -0.831470
v -0.212607 -0.318190 -0.923880
v -0.108386 -0.162212 -0.980785
v -0.000000 -0.000001 1.000000
v -0.137950 -0.137950 0.980785
v -0.270598 -0.270598 0.923880
v -0.392848 -0.392848 0.831470
v -0.500000 -0.500000 0.707107
v -0.587938 -0.587938 0.555570
v -0.653281 -0.653282 0.382683
v -0.693520 -0.693520 0.195090
v -0.707107 -0.707107 0.000000
v -0.693520 -0.693520 -0.195090
v -0.653281 -0.653282 -0.382683
v -0.587938 -0.587938 -0.555570
v -0.500000 -0.500000 -0.707107
v -0.392847 -0.392848 -0.831470
v -0.270598 -0.270598 -0.923880
v -0.137950 -0.137950 -0.980785
v -0.162212 -0.108387 0.980785
v -0.318190 -0.212608 0.923880
v -0.461940 -0.308659 0.831470
v -0.587938 -0.392848 0.707107
v -0.691342 -0.461940 0.555570
v -0.768178 -0.513280 0.382683
v -0.815493 -0.544895 0.195090
v -0.831470 -0.555570 0.000000
v -0.815493 -0.544895 -0.195090
v -0.768178 -0.513280 -0.382683
v -0.691342 -0.461940 -0.555570
v -0.587938 -0.392848 -0.707107
v -0.461940 -0.308658 -0.831470
v -0.318190 -0.212608 -0.923880
v -0.162212 -0.108387 -0.980785
v -0.180240 -0.074658 0.980785
v -0.353553 -0.146447 0.923880
v -0.513280 -0.212608 0.831470
v -0.653281 -0.270598 0.707107
v -0.768177 -0.318190 0.555570
v -0.853553 -0.353554 0.382683
v -0.906127 -0.375330 0.195090
v -0.923880 -0.382684 0.000000
v -0.906127 -0.375330 -0.195090
v -0.853553 -0.353554 -0.382683
v -0.768177 -0.318190 -0.555570
v -0.653281 -0.270598 -0.707107
v -0.513280 -0.212608 -0.831470
v -0.353553 -0.146447 -0.923880
v -0.180240 -0.074658 -0.980785
v -0.191342 -0.038061 0.980785
v -0.375330 -0.074658 0.923880
v -0.544895 -0.108387 0.831470
v -0.693520 -0.137950 0.707107
v -0.815493 -0.162212 0.555570
v -0.906127 -0.180240 0.382683
v -0.961939 -0.191342 0.195090
v -0.980785 -0.195090 0.000000
v -0.961939 -0.191342 -0.195090
v -0.906127 -0.180240 -0.382683
v -0.815493 -0.162212 -0.555570
v -0.693520 -0.137950 -0.707107
v -0.544895 -0.108387 -0.831470
v -0.375330 -0.074658 -0.923880
v -0.191342 -0.038061 -0.980785
v -0.195090 -0.000000 0.980785
v -0.382683 -0.000000 0.923880
v -0.555570 -0.000000 0.831470
v -0.707107 -0.000000 0.707107
v -0.831469 -0.000000 0.555570
v -0.923879 -0.000000 0.382683
v -0.980785 -0.000000 0.195090
v -1.000000 -0.000000 0.000000
v -0.980785 -0.000000 -0.195090
v -0.923879 -0.000000 -0.382683
v -0.831469 -0.000000 -0.555570
v -0.707107 -0.000000 -0.707107
v -0.555570 -0.000000 -0.831470
v -0.382683 -0.000000 -0.923880
v -0.195090 -0.000000 -0.980785
v -0.191342 0.038060 0.980785
v -0.375330 0.074658 0.923880
v -0.544895 0.108386 0.831470
v -0.693520 0.137949 0.707107
v -0.815493 0.162211 0.555570
v -0.906127 0.180240 0.382683
v -0.961939 0.191342 0.195090
v -0.980785 0.195090 0.000000
v -0.961939 0.191342 -0.195090
v -0.906127 0.180240 -0.382683
v -0.815493 0.162211 -0.555570
v -0.693520 0.137949 -0.707107
v -0.544895 0.108386 -0.831470
v -0.375330 0.074658 -0.923880
v -0.191342 0.038060 -0.980785
v -0.180240 0.074658 0.980785
v -0.353553 0.146446 0.923880
v -0.513280 0.212607 0.831470
v -0.653281 0.270598 0.707107
v -0.768177 0.318189 0.555570
v -0.853553 0.353553 0.382683
v -0.906127 0.375330 0.195090
v -0.923879 0.382683 0.000000
v -0.906127 0.375330 -0.195090
v -0.853553 0.353553 -0.382683
v -0.768177 0.318189 -0.555570
v -0.653281 0.270598 -0.707107
v -0.513280 0.212607 -0.831470
v -0.353553 0.146446 -0.923880
v -0.180240 0.074657 -0.980785
v -0.162212 0.108386 0.980785
v -0.318190 0.212607 0.923880
v -0.461940 0.308658 0.831470
v -0.587938 0.392847 0.707107
v -0.691341 0.461939 0.555570
v -0.768178 0.513280 0.382683
v -0.815493 0.544895 0.195090
v -0.831469 0.555570 0.000000
v -0.815493 0.544895 -0.195090
v -0.768178 0.513280 -0.382683
v -0.691341 0.461939 -0.555570
v -0.587938 0.392847 -0.707107
v -0.461940 0.308658 -0.831470
v -0.318189 0.212607 -0.923880
v -0.162212 0.108386 -0.980785
v -0.137950 0.137949 0.980785
v -0.270598 0.270598 0.923880
v -0.392847 0.392847 0.831470
v -0.500000 0.500000 0.707107
v -0.587937 0.587937 0.555570
v -0.653281 0.653281 0.382683
v -0.693519 0.693519 0.195090
v -0.707106 0.707106 0.000000
v -0.693519 0.693519 -0.195090
v -0.653281 0.653281 -0.382683
v -0.587937 0.587937 -0.555570
v -0.500000 0.500000 -0.707107
v -0.392847 0.392847 -0.831470
v -0.270598 0.270598 -0.923880
v -0.137950 0.137949 -0.980785
v -0.108386 0.162211 0.980785
v -0.212607 0.318189 0.923880
v -0.308658 0.461939 0.831470
v -0.392847 0.587937 0.707107
v -0.461939 0.691341 0.555570
v -0.513280 0.768177 0.382683
v -0.544895 0.815492 0.195090
v -0.555570 0.831469 0.000000
v -0.544895 0.815492 -0.195090
v -0.513280 0.768177 -0.382683
v -0.461939 0.691341 -0.555570
v -0.392847 0.587937 -0.707107
v -0.308658 0.461939 -0.831470
v -0.212607 0.318189 -0.923880
v -0.108386 0.162211 -0.980785
v -0.074658 0.180240 0.980785
v -0.146447 0.353553 0.923880
v -0.212607 0.513280 0.831470
v -0.270598 0.653281 0.707107
v -0.318189 0.768177 0.555570
v -0.353553 0.853553 0.382683
v -0.375330 0.906127 0.195090
v -0.382683 0.923879 0.000000
v -0.375330 0.906127 -0.195090
v -0.353553 0.853553 -0.382683
v -0.318189 0.768177 -0.555570
v -0.270598 0.653281 -0.707107
v -0.212607 0.513279 -0.831470
v -0.146446 0.353553 -0.923880
v -0.074658 0.180240 -0.980785
v -0.038060 0.191342 0.980785
v -0.074658 0.375330 0.923880
v -0.108386 0.544895 0.831470
v -0.137950 0.693520 0.707107
v -0.162211 0.815492 0.555570
v -0.180240 0.906127 0.382683
v -0.191341 0.961939 0.195090
v -0.195090 0.980785 0.000000
v -0.191341 0.961939 -0.195090
v -0.180240 0.906127 -0.382683
v -0.162211 0.815492 -0.555570
v -0.137950 0.693520 -0.707107
v -0.108386 0.544895 -0.831470
v -0.074658 0.375330 -0.923880
v -0.038060 0.191341 -0.980785
v 0.000000 0.923879 -0.382683
v 0.000000 0.831469 -0.555570
v 0.000000 0.707106 -0.707107
v 0.000000 0.382683 -0.923880
v 0.000000 0.195090 -0.980785
vt 0.000000 0.000000
vt 1.000000 1.000000
vt 0.000000 1.000000
vt 1.000000 0.000000
vt 0.000000 1.000000
vt 0.000000 0.000000
vt 1.000000 0.000000
vt 0.000000 1.000000
vt 0.000000 0.000000
vt 1.000000 0.000000
vt 0.000000 1.000000
vt 0.000000 0.000000
vt 1.000000 0.000000
vt 0.000000 1.000000
vt 0.000000 0.000000
vt 1.000000 0.000000
vt 0.000000 1.000000
vt 0.000000 0.000000
vt 1.000000 0.000000
vt 0.000000 1.000000
vt 0.000000 0.000000
vt 1.000000 0.000000
vt 0.000000 1.000000
vt 0.000000 0.000000
vt 1.000000 0.000000
vt 0.000000 1.000000
vt 0.000000 0.000000
vt 1.000000 0.000000
vt 0.000000 1.000000
vt 0.000000 0.000000
vt 1.000000 0.000000
vt 0.000000 1.000000
vt 0.000000 0.000000
vt 0.000000 0.000000
vt 1.000000 0.000000
vt 1.000000 1.000000
vt 0.000000 0.000000
vt 1.000000 0.000000
vt 1.000000 1.000000
vt 1.000000 0.000000
vt 0.000000 1.000000
vt 0.000000 0.000000
vt 1.000000 0.000000
vt 0.000000 1.000000
vt 0.000000 0.000000
vt 1.000000 0.000000
vt 0.000000 1.000000
vt 0.000000 0.000000
vt 1.000000 0.000000
vt 0.000000 1.000000
vt 0.000000 0.000000
vt 1.000000 0.000000
vt 0.000000 1.000000
vt 0.000000 0.000000
vt 0.000000 0.000000
vt 1.000000 1.000000
vt 0.000000 1.000000
vt 0.000000 0.000000
vt 1.000000 1.000000
vt 0.000000 1.000000
vt 1.000000 0.000000
vt 0.000000 1.000000
vt 0.000000 0.000000
vt 0.000000 0.000000
vt 1.000000 1.000000
vt 1.000000 0.000000
vt 1.000000 1.000000
vt 1.000000 0.000000
vt 0.000000 1.000000
vt 0.000000 0.000000
vt 1.000000 0.000000
vt 0.000000 1.000000
vt 0.000000 0.000000
vt 1.000000 0.000000
vt 0.000000 1.000000
vt 0.000000 0.000000
vt 0.000000 0.000000
vt 1.000000 1.000000
vt 0.000000 1.000000
vt 0.000000 0.000000
vt 1.000000 1.000000
vt 0.000000 1.000000
vt 0.000000 0.000000
vt 1.000000 1.000000
vt 0.000000 1.000000
vt 1.000000 0.000000
vt 0.000000 1.000000
vt 0.000000 0.000000
vt 1.000000 0.000000
vt 0.000000 1.000000
vt 0.000000 0.000000
vt 0.000000 0.000000
vt 1.000000 1.000000
vt 0.000000 1.000000
vt 1.000000 0.000000
vt 0.000000 1.000000
vt 0.000000 0.000000
vt 1.000000 0.000000
vt 0.000000 1.000000
vt 0.000000 0.000000
vt 0.000000 0.000000
vt 1.000000 1.000000
vt 0.000000 1.000000
vt 0.000000 0.000000
vt 1.000000 1.000000
vt 0.000000 1.000000
vt 1.000000 0.000000
vt 0.000000 1.000000
vt 0.000000 0.000000
vt 0.000000 0.000000
vt 1.000000 1.000000
vt 0.000000 1.000000
vt 1.000000 0.000000
vt 0.000000 1.000000
vt 0.000000 0.000000
vt 1.000000 0.000000
vt 0.000000 1.000000
vt 0.000000 0.000000
vt 1.000000 0.000000
vt 0.000000 1.000000
vt 0.000000 0.000000
vt 0.000000 0.000000
vt 1.000000 1.000000
vt 0.000000 1.000000
vt 1.000000 0.000000
vt 0.000000 1.000000
vt 0.000000 0.000000
vt 1.000000 0.000000
vt 0.000000 1.000000
vt 0.000000 0.000000
vt 0.000000 0.000000
vt 1.000000 1.000000
vt 1.000000 0.000000
vt 1.000000 1.000000
vt 1.000000 0.000000
vt 0.000000 1.000000
vt 0.000000 0.000000
vt 1.000000 0.000000
vt 0.000000 1.000000
vt 0.000000 0.000000
vt 0.000000 0.000000
vt 1.000000 1.000000
vt 0.000000 1.000000
vt 0.000000 0.000000
vt 1.000000 1.000000
vt 0.000000 1.000000
vt 0.000000 0.000000
vt 1.000000 1.000000
vt 0.000000 1.000000
vt 1.000000 0.000000
vt 0.000000 1.000000
vt 0.000000 0.000000
vt 0.000000 0.000000
vt 1.000000 1.000000
vt 1.000000 0.000000
vt 1.000000 1.000000
vt 0.000000 0.000000
vt 1.000000 1.000000
vt 0.000000 1.000000
vt 1.000000 0.000000
vt 0.000000 1.000000
vt 0.000000 0.000000
vt 1.000000 0.000000
vt 0.000000 1.000000
vt 0.000000 0.000000
vt 1.000000 0.000000
vt 0.000000 1.000000
vt 0.000000 0.000000
vt 0.000000 0.000000
vt 1.000000 1.000000
vt 0.000000 1.000000
vt 0.000000 0.000000
vt 1.000000 1.000000
vt 0.000000 1.000000
vt 1.000000 0.000000
vt 0.000000 1.000000
vt 0.000000 0.000000
vt 0.000000 0.000000
vt 1.000000 1.000000
vt 0.000000 1.000000
vt 1.000000 0.000000
vt 0.000000 1.000000
vt 0.000000 0.000000
vt 1.000000 0.000000
vt 0.000000 1.000000
vt 0.000000 0.000000
vt 0.000000 0.000000
vt 1.000000 1.000000
vt 0.000000 1.000000
vt 1.000000 0.000000
vt 0.000000 1.000000
vt 0.000000 0.000000
vt 1.000000 0.000000
vt 0.000000 1.000000
vt 0.000000 0.000000
vt 0.000000 0.000000
vt 1.000000 1.000000
vt 0.000000 1.000000
vt 0.000000 0.000000
vt 1.000000 1.000000
vt 0.000000 1.000000
vt 1.000000 0.000000
vt 0.000000 1.000000
vt 0.000000 0.000000
vt 1.000000 0.000000
vt 0.000000 1.000000
vt 0.000000 0.000000
vt 0.000000 0.000000
vt 1.000000 1.000000
vt 0.000000 1.000000
vt 0.000000 0.000000
vt 1.000000 1.000000
vt 0.000000 1.000000
vt 1.000000 0.000000
vt 0.000000 1.000000
vt 0.000000 0.000000
vt 0.000000 0.000000
vt 1.000000 1.000000
vt 1.000000 0.000000
vt 1.000000 1.000000
vt 1.000000 0.000000
vt 0.000000 1.000000
vt 0.000000 0.000000
vt 1.000000 0.000000
vt 0.000000 1.000000
vt 0.000000 0.000000
vt 1.000000 0.000000
vt 0.000000 1.000000
vt 0.000000 0.000000
vt 1.000000 0.000000
vt 0.000000 1.000000
vt 0.000000 0.000000
vt 1.000000 0.000000
vt 0.000000 1.000000
vt 0.000000 0.000000
vt 0.000000 0.000000
vt 1.000000 1.000000
vt 0.000000 1.000000
vt 0.000000 0.000000
vt 1.000000 1.000000
vt 1.000000 0.000000
vt 1.000000 1.000000
vt 1.000000 0.000000
vt 0.000000 1.000000
vt 0.000000 0.000000
vt 1.000000 0.000000
vt 0.000000 1.000000
vt 0.000000 0.000000
vt 1.000000 0.000000
vt 0.000000 1.000000
vt 0.000000 0.000000
vt 1.000000 0.000000
vt 0.000000 1.000000
vt 0.000000 0.000000
vt 0.000000 0.000000
vt 1.000000 1.000000
vt 0.000000 1.000000
vt 0.000000 0.000000
vt 1.000000 1.000000
vt 0.000000 1.000000
vt 1.000000 0.000000
vt 0.000000 1.000000
vt 0.000000 0.000000
vt 0.000000 0.000000
vt 1.000000 1.000000
vt 0.000000 1.000000
vt 1.000000 0.000000
vt 0.000000 1.000000
vt 0.000000 0.000000
vt 1.000000 0.000000
vt 0.000000 1.000000
vt 0.000000 0.000000
vt 1.000000 0.000000
vt 0.000000 1.000000
vt 0.000000 0.000000
vt 0.000000 0.000000
vt 1.000000 1.000000
vt 0.000000 1.000000
vt 0.000000 0.000000
vt 1.000000 1.000000
vt 0.000000 1.000000
vt 1.000000 0.000000
vt 0.000000 1.000000
vt 0.000000 0.000000
vt 0.000000 0.000000
vt 1.000000 1.000000
vt 0.000000 1.000000
vt 1.000000 0.000000
vt 0.000000 1.000000
vt 0.000000 0.000000
vt 1.000000 0.000000
vt 0.000000 1.000000
vt 0.000000 0.000000
vt 0.000000 0.000000
vt 1.000000 1.000000
vt 0.000000 1.000000
vt 0.000000 0.000000
vt 1.000000 1.000000
vt 0.000000 1.000000
vt 1.000000 0.000000
vt 0.000000 1.000000
vt 0.000000 0.000000
vt 1.000000 0.000000
vt 0.000000 1.000000
vt 0.000000 0.000000
vt 0.000000 0.000000
vt 1.000000 1.000000
vt 1.000000 0.000000
vt 1.000000 1.000000
vt 1.000000 0.000000
vt 0.000000 1.000000
vt 0.000000 0.000000
vt 1.000000 0.000000
vt 0.000000 1.000000
vt 0.000000 0.000000
vt 1.000000 0.000000
vt 0.000000 1.000000
vt 0.000000 0.000000
vt 1.000000 0.000000
vt 0.000000 1.000000
vt 0.000000 0.000000
vt 0.000000 0.000000
vt 1.000000 1.000000
vt 0.000000 1.000000
vt 1.000000 0.000000
vt 0.000000 1.000000
vt 0.000000 0.000000
vt 0.000000 0.000000
vt 1.000000 1.000000
vt 1.000000 0.000000
vt 1.000000 1.000000
vt 1.000000 0.000000
vt 0.000000 1.000000
vt 0.000000 0.000000
vt 1.000000 0.000000
vt 0.000000 1.000000
vt 0.000000 0.000000
vt 1.000000 0.000000
vt 0.000000 1.000000
vt 0.000000 0.000000
vt 1.000000 0.000000
vt 0.000000 1.000000
vt 0.000000 0.000000
vt 0.000000 0.000000
vt 1.000000 1.000000
vt 0.000000 1.000000
vt 0.000000 0.000000
vt 1.000000 1.000000
vt 0.000000 1.000000
vt 0.000000 0.000000
vt 1.000000 1.000000
vt 0.000000 1.000000
vt 0.000000 0.000000
vt 1.000000 1.000000
vt 0.000000 1.000000
vt 1.000000 0.000000
vt 0.000000 1.000000
vt 0.000000 0.000000
vt 1.000000 0.000000
vt 0.000000 1.000000
vt 0.000000 0.000000
vt 0.000000 0.000000
vt 1.000000 1.000000
vt 0.000000 1.000000
vt 0.000000 0.000000
vt 1.000000 1.000000
vt 0.000000 1.000000
vt 0.000000 0.000000
vt 1.000000 1.000000
vt 0.000000 1.000000
vt 1.000000 0.000000
vt 0.000000 1.000000
vt 0.000000 0.000000
vt 0.000000 0.000000
vt 1.000000 1.000000
vt 0.000000 1.000000
vt 1.000000 0.000000
vt 0.000000 1.000000
vt 0.000000 0.000000
vt 1.000000 0.000000
vt 0.000000 1.000000
vt 0.000000 0.000000
vt 0.000000 0.000000
vt 1.000000 1.000000
vt 0.000000 1.000000
vt 0.000000 0.000000
vt 1.000000 1.000000
vt 0.000000 1.000000
vt 1.000000 0.000000
vt 0.000000 1.000000
vt 0.000000 0.000000
vt 1.000000 0.000000
vt 0.000000 1.000000
vt 0.000000 0.000000
vt 0.000000 0.000000
vt 1.000000 1.000000
vt 1.000000 0.000000
vt 1.000000 1.000000
vt 1.000000 0.000000
vt 0.000000 1.000000
vt 0.000000 0.000000
vt 0.000000 0.000000
vt 0.000000 1.000000
vt 1.000000 0.000000
vt 0.000000 1.000000
vt 0.000000 0.000000
vt 1.000000 0.000000
vt 0.000000 1.000000
vt 0.000000 0.000000
vt 0.000000 0.000000
vt 1.000000 1.000000
vt 0.000000 1.000000
vt 0.000000 0.000000
vt 1.000000 1.000000
vt 0.000000 1.000000
vt 0.000000 0.000000
vt 1.000000 1.000000
vt 1.000000 0.000000
vt 1.000000 1.000000
vt 0.000000 0.000000
vt 1.000000 1.000000
vt 0.000000 1.000000
vt 0.000000 0.000000
vt 0.000000 1.000000
vt 1.000000 0.000000
vt 0.000000 1.000000
vt 0.000000 0.000000
vt 1.000000 0.000000
vt 0.000000 1.000000
vt 0.000000 0.000000
vt 0.000000 0.000000
vt 1.000000 1.000000
vt 0.000000 1.000000
vt 0.000000 0.000000
vt 1.000000 1.000000
vt 0.000000 1.000000
vt 1.000000 0.000000
vt 0.000000 1.000000
vt 0.000000 0.000000
vt 1.000000 0.000000
vt 0.000000 1.000000
vt 0.000000 0.000000
vt 0.000000 0.000000
vt 1.000000 1.000000
vt 0.000000 1.000000
vt 1.000000 0.000000
vt 0.000000 1.000000
vt 0.000000 0.000000
vt 0.000000 0.000000
vt 1.000000 1.000000
vt 0.000000 1.000000
vt 0.000000 0.000000
vt 1.000000 1.000000
vt 0.000000 1.000000
vt 1.000000 0.000000
vt 0.000000 1.000000
vt 0.000000 0.000000
vt 1.000000 0.000000
vt 0.000000 1.000000
vt 0.000000 0.000000
vt 0.000000 0.000000
vt 1.000000 1.000000
vt 0.000000 1.000000
vt 1.000000 0.000000
vt 0.000000 1.000000
vt 0.000000 0.000000
vt 1.000000 0.000000
vt 0.000000 1.000000
vt 0.000000 0.000000
vt 0.000000 0.000000
vt 1.000000 1.000000
vt 0.000000 1.000000
vt 0.000000 0.000000
vt 1.000000 1.000000
vt 0.000000 1.000000
vt 1.000000 0.000000
vt 0.000000 1.000000
vt 0.000000 0.000000
vt 1.000000 0.000000
vt 0.000000 1.000000
vt 0.000000 0.000000
vt 0.000000 0.000000
vt 1.000000 1.000000
vt 1.000000 0.000000
vt 1.000000 1.000000
vt 0.000000 0.000000
vt 1.000000 1.000000
vt 0.000000 1.000000
vt 0.000000 0.000000
vt 0.000000 1.000000
vt 1.000000 0.000000
vt 0.000000 1.000000
vt 0.000000 0.000000
vt 1.000000 0.000000
vt 0.000000 1.000000
vt 0.000000 0.000000
vt 0.000000 0.000000
vt 1.000000 1.000000
vt 0.000000 1.000000
vt 0.000000 0.000000
vt 1.000000 1.000000
vt 0.000000 1.000000
vt 1.000000 0.000000
vt 0.000000 1.000000
vt 0.000000 0.000000
vt 1.000000 0.000000
vt 0.000000 1.000000
vt 0.000000 0.000000
vt 1.000000 0.000000
vt 0.000000 1.000000
vt 0.000000 0.000000
vt 1.000000 0.000000
vt 0.000000 1.000000
vt 0.000000 0.000000
vt 1.000000 0.000000
vt 0.000000 1.000000
vt 0.000000 0.000000
vt 0.000000 0.000000
vt 1.000000 1.000000
vt 0.000000 1.000000
vt 0.000000 0.000000
vt 1.000000 1.000000
vt 0.000000 1.000000
vt 1.000000 0.000000
vt 0.000000 1.000000
vt 0.000000 0.000000
vt 1.000000 0.000000
vt 0.000000 1.000000
vt 0.000000 0.000000
vt 1.000000 0.000000
vt 0.000000 1.000000
vt 0.000000 0.000000
vt 1.000000 0.000000
vt 0.000000 1.000000
vt 0.000000 0.000000
vt 0.000000 0.000000
vt 1.000000 1.000000
vt 0.000000 1.000000
vt 0.000000 0.000000
vt 1.000000 1.000000
vt 0.000000 1.000000
vt 1.000000 0.000000
vt 0.000000 1.000000
vt 0.000000 0.000000
vt 1.000000 0.000000
vt 0.000000 1.000000
vt 0.000000 0.000000
vt 0.000000 0.000000
vt 1.000000 1.000000
vt 1.000000 0.000000
vt 1.000000 1.000000
vt 1.000000 0.000000
vt 0.000000 1.000000
vt 0.000000 0.000000
vt 1.000000 0.000000
vt 0.000000 1.000000
vt 0.000000 0.000000
vt 0.000000 0.000000
vt 1.000000 1.000000
vt 0.000000 1.000000
vt 0.000000 0.000000
vt 1.000000 1.000000
vt 0.000000 1.000000
vt 1.000000 0.000000
vt 0.000000 1.000000
vt 0.000000 0.000000
vt 1.000000 0.000000
vt 0.000000 1.000000
vt 0.000000 0.000000
vt 0.000000 0.000000
vt 1.000000 1.000000
vt 1.000000 0.000000
vt 1.000000 1.000000
vt 0.000000 0.000000
vt 1.000000 1.000000
vt 0.000000 1.000000
vt 1.000000 0.000000
vt 0.000000 1.000000
vt 0.000000 0.000000
vt 1.000000 0.000000
vt 0.000000 1.000000
vt 0.000000 0.000000
vt 0.000000 0.000000
vt 1.000000 1.000000
vt 0.000000 1.000000
vt 0.000000 0.000000
vt 1.000000 1.000000
vt 0.000000 1.000000
vt 0.000000 0.000000
vt 1.000000 1.000000
vt 0.000000 1.000000
vt 1.000000 0.000000
vt 0.000000 1.000000
vt 0.000000 0.000000
vt 0.000000 0.000000
vt 1.000000 1.000000
vt 0.000000 1.000000
vt 1.000000 0.000000
vt 0.000000 1.000000
vt 0.000000 0.000000
vt 1.000000 0.000000
vt 0.000000 1.000000
vt 0.000000 0.000000
vt 0.000000 0.000000
vt 1.000000 1.000000
vt 0.000000 1.000000
vt 1.000000 0.000000
vt 0.000000 1.000000
vt 0.000000 0.000000
vt 1.000000 0.000000
vt 0.000000 1.000000
vt 0.000000 0.000000
vt 0.000000 0.000000
vt 1.000000 1.000000
vt 0.000000 1.000000
vt 1.000000 0.000000
vt 0.000000 1.000000
vt 0.000000 0.000000
vt 1.000000 0.000000
vt 0.000000 1.000000
vt 0.000000 0.000000
vt 1.000000 0.000000
vt 0.000000 1.000000
vt 0.000000 0.000000
vt 0.000000 0.000000
vt 1.000000 1.000000
vt 0.000000 1.000000
vt 1.000000 0.000000
vt 0.000000 1.000000
vt 0.000000 0.000000
vt 1.000000 0.000000
vt 0.000000 1.000000
vt 0.000000 0.000000
vt 0.000000 0.000000
vt 1.000000 1.000000
vt 1.000000 0.000000
vt 1.000000 1.000000
vt 0.000000 0.000000
vt 1.000000 1.000000
vt 0.000000 1.000000
vt 1.000000 0.000000
vt 0.000000 1.000000
vt 0.000000 0.000000
vt 1.000000 0.000000
vt 0.000000 1.000000
vt 0.000000 0.000000
vt 0.000000 0.000000
vt 1.000000 1.000000
vt 0.000000 1.000000
vt 1.000000 0.000000
vt 0.000000 1.000000
vt 0.000000 0.000000
vt 0.000000 0.000000
vt 1.000000 1.000000
vt 0.000000 1.000000
vt 0.000000 0.000000
vt 1.000000 1.000000
vt 1.000000 0.000000
vt 1.000000 1.000000
vt 1.000000 0.000000
vt 0.000000 1.000000
vt 0.000000 0.000000
vt 1.000000 0.000000
vt 0.000000 1.000000
vt 0.000000 0.000000
vt 1.000000 0.000000
vt 0.000000 1.000000
vt 0.000000 0.000000
vt 1.000000 0.000000
vt 0.000000 1.000000
vt 0.000000 0.000000
vt 0.000000 0.000000
vt 1.000000 1.000000
vt 0.000000 1.000000
vt 1.000000 0.000000
vt 0.000000 1.000000
vt 0.000000 0.000000
vt 1.000000 0.000000
vt 0.000000 1.000000
vt 0.000000 0.000000
vt 0.000000 0.000000
vt 1.000000 1.000000
vt 0.000000 1.000000
vt 0.000000 0.000000
vt 1.000000 1.000000
vt 0.000000 1.000000
vt 1.000000 0.000000
vt 0.000000 1.000000
vt 0.000000 0.000000
vt 0.000000 0.000000
vt 1.000000 1.000000
vt 0.000000 1.000000
vt 0.000000 0.000000
vt 1.000000 1.000000
vt 0.000000 1.000000
vt 0.000000 0.000000
vt 1.000000 1.000000
vt 0.000000 1.000000
vt 1.000000 0.000000
vt 0.000000 1.000000
vt 0.000000 0.000000
vt 0.000000 0.000000
vt 1.000000 1.000000
vt 0.000000 1.000000
vt 1.000000 0.000000
vt 0.000000 1.000000
vt 0.000000 0.000000
vt 1.000000 0.000000
vt 0.000000 1.000000
vt 0.000000 0.000000
vt 1.000000 0.000000
vt 0.000000 1.000000
vt 0.000000 0.000000
vt 0.000000 0.000000
vt 1.000000 1.000000
vt 0.000000 1.000000
vt 1.000000 0.000000
vt 0.000000 1.000000
vt 0.000000 0.000000
vt 1.000000 0.000000
vt 0.000000 1.000000
vt 0.000000 0.000000
vt 0.000000 0.000000
vt 1.000000 1.000000
vt 1.000000 0.000000
vt 1.000000 1.000000
vt 1.000000 0.000000
vt 0.000000 1.000000
vt 0.000000 0.000000
vt 0.000000 0.000000
vt 0.000000 1.000000
vt 1.000000 0.000000
vt 0.000000 1.000000
vt 0.000000 0.000000
vt 0.000000 0.000000
vt 1.000000 1.000000
vt 0.000000 1.000000
vt 0.000000 0.000000
vt 1.000000 1.000000
vt 0.000000 1.000000
vt 1.000000 0.000000
vt 0.000000 1.000000
vt 0.000000 0.000000
vt 0.000000 0.000000
vt 1.000000 1.000000
vt 1.000000 0.000000
vt 1.000000 1.000000
vt 1.000000 0.000000
vt 0.000000 1.000000
vt 0.000000 0.000000
vt 1.000000 0.000000
vt 0.000000 1.000000
vt 0.000000 0.000000
vt 1.000000 0.000000
vt 0.000000 1.000000
vt 0.000000 0.000000
vt 1.000000 0.000000
vt 0.000000 1.000000
vt 0.000000 0.000000
vt 0.000000 0.000000
vt 1.000000 1.000000
vt 0.000000 1.000000
vt 1.000000 0.000000
vt 0.000000 1.000000
vt 0.000000 0.000000
vt 1.000000 0.000000
vt 0.000000 1.000000
vt 0.000000 0.000000
vt 0.000000 0.000000
vt 1.000000 1.000000
vt 0.000000 1.000000
vt 1.000000 0.000000
vt 0.000000 1.000000
vt 0.000000 0.000000
vt 1.000000 0.000000
vt 0.000000 1.000000
vt 0.000000 0.000000
vt 1.000000 0.000000
vt 0.000000 1.000000
vt 0.000000 0.000000
vt 0.000000 0.000000
vt 1.000000 1.000000
vt 0.000000 1.000000
vt 0.000000 0.000000
vt 1.000000 1.000000
vt 0.000000 1.000000
vt 1.000000 0.000000
vt 0.000000 1.000000
vt 0.000000 0.000000
vt 0.000000 0.000000
vt 1.000000 1.000000
vt 0.000000 1.000000
vt 1.000000 0.000000
vt 0.000000 1.000000
vt 0.000000 0.000000
vt 0.000000 0.000000
vt 1.000000 1.000000
vt 0.000000 1.000000
vt 1.000000 0.000000
vt 0.000000 1.000000
vt 0.000000 0.000000
vt 0.000000 0.000000
vt 1.000000 1.000000
vt 0.000000 1.000000
vt 1.000000 0.000000
vt 0.000000 1.000000
vt 0.000000 0.000000
vt 0.000000 0.000000
vt 1.000000 1.000000
vt 0.000000 1.000000
vt 0.000000 0.000000
vt 1.000000 1.000000
vt 1.000000 0.000000
vt 1.000000 1.000000
vt 1.000000 0.000000
vt 0.000000 1.000000
vt 0.000000 0.000000
vt 0.000000 0.000000
vt 0.000000 1.000000
vt 1.000000 0.000000
vt 0.000000 1.000000
vt 0.000000 0.000000
vt 0.000000 0.000000
vt 1.000000 1.000000
vt 0.000000 1.000000
vt 1.000000 1.000000
vt 1.000000 1.000000
vt 1.000000 0.000000
vt 1.000000 0.000000
vt 1.000000 0.000000
vt 1.000000 0.000000
vt 1.000000 1.000000
vt 1.000000 1.000000
vt 1.000000 1.000000
vt 1.000000 1.000000
vt 1.000000 1.000000
vt 1.000000 1.000000
vt 1.000000 1.000000
vt 1.000000 1.000000
vt 1.000000 1.000000
vt 1.000000 1.000000
vt 1.000000 1.000000
vt 1.000000 1.000000
vt 1.000000 0.000000
vt 1.000000 1.000000
vt 1.000000 1.000000
vt 1.000000 1.000000
vt 1.000000 0.000000
vt 1.000000 1.000000
vt 1.000000 1.000000
vt 1.000000 0.000000
vt 1.000000 1.000000
vt 1.000000 1.000000
vt 1.000000 0.000000
vt 1.000000 0.000000
vt 1.000000 1.000000
vt 1.000000 0.000000
vt 1.000000 1.000000
vt 1.000000 1.000000
vt 1.000000 1.000000
vt 1.000000 0.000000
vt 1.000000 1.000000
vt 1.000000 1.000000
vt 1.000000 1.000000
vt 1.000000 0.000000
vt 1.000000 0.000000
vt 1.000000 0.000000
vt 1.000000 1.000000
vt 1.000000 0.000000
vt 1.000000 1.000000
vt 1.000000 1.000000
vt 1.000000 0.000000
vt 1.000000 0.000000
vt 1.000000 1.000000
vt 1.000000 0.000000
vt 1.000000 1.000000
vt 1.000000 1.000000
vt 1.000000 0.000000
vt 1.000000 1.000000
vt 1.000000 1.000000
vt 1.000000 0.000000
vt 1.000000 0.000000
vt 1.000000 1.000000
vt 1.000000 1.000000
vt 1.000000 0.000000
vt 1.000000 0.000000
vt 1.000000 1.000000
vt 1.000000 1.000000
vt 1.000000 1.000000
vt 1.000000 1.000000
vt 1.000000 1.000000
vt 1.000000 0.000000
vt 1.000000 1.000000
vt 1.000000 1.000000
vt 1.000000 1.000000
vt 1.000000 0.000000
vt 1.000000 0.000000
vt 1.000000 1.000000
vt 1.000000 0.000000
vt 1.000000 1.000000
vt 1.000000 1.000000
vt 1.000000 1.000000
vt 1.000000 0.000000
vt 1.000000 0.000000
vt 1.000000 1.000000
vt 1.000000 0.000000
vt 1.000000 1.000000
vt 1.000000 1.000000
vt 1.000000 0.000000
vt 1.000000 0.000000
vt 1.000000 1.000000
vt 1.000000 1.000000
vt 1.000000 1.000000
vt 1.000000 1.000000
vt 1.000000 1.000000
vt 1.000000 0.000000
vt 1.000000 1.000000
vt 1.000000 1.000000
vt 1.000000 1.000000
vt 1.000000 1.000000
vt 1.000000 0.000000
vt 1.000000 0.000000
vt 1.000000 0.000000
vt 1.000000 0.000000
vt 1.000000 1.000000
vt 1.000000 1.000000
vt 1.000000 0.000000
vt 1.000000 0.000000
vt 1.000000 0.000000
vt 1.000000 1.000000
vt 1.000000 0.000000
vt 1.000000 1.000000
vt 1.000000 1.000000
vt 1.000000 0.000000
vt 1.000000 0.000000
vt 1.000000 1.000000
vt 1.000000 1.000000
vt 1.000000 1.000000
vt 1.000000 0.000000
vt 1.000000 1.000000
vt 1.000000 1.000000
vt 1.000000 0.000000
vt 1.000000 0.000000
vt 1.000000 0.000000
vt 1.000000 0.000000
vt 1.000000 1.000000
vt 1.000000 1.000000
vt 1.000000 0.000000
vt 1.000000 0.000000
vt 1.000000 1.000000
vt 1.000000 1.000000
vt 1.000000 0.000000
vt 1.000000 1.000000
vt 1.000000 0.000000
vt 1.000000 0.000000
vt 1.000000 1.000000
vt 1.000000 1.000000
vt 1.000000 0.000000
vt 1.000000 1.000000
vt 1.000000 1.000000
vt 1.000000 0.000000
vt 1.000000 0.000000
vt 1.000000 1.000000
vt 1.000000 1.000000
vt 1.000000 0.000000
vt 1.000000 0.000000
vt 1.000000 1.000000
vt 1.000000 1.000000
vt 1.000000 0.000000
vt 1.000000 0.000000
vt 1.000000 1.000000
vt 1.000000 1.000000
vt 1.000000 1.000000
vt 1.000000 1.000000
vt 1.000000 0.000000
vt 1.000000 0.000000
vt 1.000000 1.000000
vt 1.000000 1.000000
vt 1.000000 1.000000
vt 1.000000 1.000000
vt 1.000000 0.000000
vt 1.000000 0.000000
vt 1.000000 1.000000
vt 1.000000 1.000000
vt 1.000000 1.000000
vt 1.000000 1.000000
vt 1.000000 0.000000
vt 1.000000 0.000000
vt 1.000000 1.000000
vt 1.000000 1.000000
vt 1.000000 0.000000
vt 1.000000 1.000000
vt 1.000000 0.000000
vt 1.000000 0.000000
vt 1.000000 0.000000
vt 1.000000 1.000000
vt 1.000000 0.000000
vt 1.000000 1.000000
vt 1.000000 1.000000
vt 1.000000 0.000000
vt 1.000000 1.000000
vt 1.000000 1.000000
vt 1.000000 0.000000
vt 1.000000 1.000000
vt 1.000000 1.000000
vt 1.000000 1.000000
vt 1.000000 0.000000
vt 1.000000 1.000000
vt 1.000000 1.000000
vt 1.000000 0.000000
vt 1.000000 1.000000
vt 1.000000 0.000000
vt 1.000000 1.000000
vt 1.000000 0.000000
vt 1.000000 1.000000
vt 1.000000 1.000000
vt 1.000000 1.000000
vt 1.000000 0.000000
vt 1.000000 1.000000
vt 1.000000 1.000000
vt 1.000000 0.000000
vt 1.000000 0.000000
vt 1.000000 1.000000
vt 1.000000 0.000000
vt 1.000000 0.000000
vt 1.000000 0.000000
vt 1.000000 1.000000
vt 1.000000 0.000000
vt 1.000000 1.000000
vt 1.000000 1.000000
vt 1.000000 1.000000
vt 1.000000 0.000000
vt 1.000000 1.000000
vt 1.000000 1.000000
vt 1.000000 1.000000
vt 1.000000 0.000000
vt 1.000000 1.000000
vt 1.000000 0.000000
vt 1.000000 0.000000
vt 1.000000 1.000000
vt 1.000000 1.000000
vt 1.000000 1.000000
vt 1.000000 1.000000
vt 1.000000 0.000000
vt 1.000000 1.000000
vt 1.000000 1.000000
vt 1.000000 0.000000
vt 1.000000 1.000000
vt 1.000000 1.000000
vt 1.000000 1.000000
vt 1.000000 0.000000
vt 1.000000 0.000000
vt 1.000000 1.000000
vt 1.000000 0.000000
vt 1.000000 1.000000
vt 1.000000 0.000000
vt 1.000000 1.000000
vt 1.000000 0.000000
vt 1.000000 1.000000
vt 1.000000 0.000000
vt 1.000000 1.000000
vt 1.000000 0.000000
vt 1.000000 1.000000
vt 1.000000 0.000000
vn 0.0464 0.4709 0.8810
vn 0.0865 0.8786 -0.4696
vn 0.0624 0.6332 0.7715
vn 0.0759 0.7708 -0.6326
vn 0.0759 0.7708 0.6326
vn 0.0624 0.6332 -0.7715
vn 0.0865 0.8786 0.4696
vn 0.0464 0.4709 -0.8810
vn 0.0938 0.9527 0.2890
vn 0.0286 0.2902 -0.9565
vn 0.0975 0.9904 0.0975
vn 0.0097 0.0980 0.9951
vn 0.0097 0.0980 -0.9951
vn 0.0975 0.9904 -0.0976
vn 0.0286 0.2902 0.9565
vn 0.0938 0.9527 -0.2890
vn 0.0865 -0.8786 0.4696
vn 0.0464 -0.4709 -0.8810
vn 0.0938 -0.9527 0.2890
vn 0.0286 -0.2902 -0.9565
vn 0.0975 -0.9904 0.0976
vn 0.0097 -0.0980 0.9951
vn 0.0097 -0.0980 -0.9951
vn 0.0975 -0.9904 -0.0976
vn 0.0286 -0.2902 0.9565
vn 0.0938 -0.9527 -0.2890
vn 0.0464 -0.4709 0.8810
vn 0.0865 -0.8786 -0.4696
vn 0.0624 -0.6332 0.7715
vn 0.0759 -0.7708 -0.6326
vn 0.0759 -0.7708 0.6326
vn 0.0624 -0.6332 -0.7715
vn -0.0938 -0.9527 -0.2890
vn -0.0464 -0.4709 0.8810
vn -0.0865 -0.8786 -0.4696
vn -0.0624 -0.6332 0.7715
vn -0.0759 -0.7708 -0.6326
vn -0.0759 -0.7708 0.6326
vn -0.0624 -0.6332 -0.7715
vn -0.0865 -0.8786 0.4696
vn -0.0464 -0.4709 -0.8810
vn -0.0938 -0.9527 0.2890
vn -0.0286 -0.2902 -0.9565
vn -0.0975 -0.9904 0.0976
vn -0.0097 -0.0980 0.9951
vn -0.0097 -0.0980 -0.9951
vn -0.0975 -0.9904 -0.0976
vn -0.0286 -0.2902 0.9565
vn -0.1374 -0.4528 -0.8810
vn -0.2779 -0.9161 0.2890
vn -0.0846 -0.2790 -0.9565
vn -0.2889 -0.9524 0.0976
vn -0.0286 -0.0942 0.9951
vn -0.0286 -0.0942 -0.9951
vn -0.2889 -0.9524 -0.0976
vn -0.0846 -0.2790 0.9565
vn -0.2779 -0.9161 -0.2890
vn -0.1374 -0.4528 0.8810
vn -0.2563 -0.8448 -0.4696
vn -0.1847 -0.6088 0.7715
vn -0.2248 -0.7412 -0.6326
vn -0.2248 -0.7412 0.6326
vn -0.1847 -0.6088 -0.7715
vn -0.2563 -0.8448 0.4696
vn -0.4162 -0.7786 -0.4696
vn -0.2999 -0.5611 0.7715
vn -0.3651 -0.6831 -0.6326
vn -0.3651 -0.6831 0.6326
vn -0.2999 -0.5611 -0.7715
vn -0.4162 -0.7786 0.4696
vn -0.2230 -0.4173 -0.8810
vn -0.4513 -0.8443 0.2890
vn -0.1374 -0.2571 -0.9565
vn -0.4691 -0.8777 0.0976
vn -0.0464 -0.0869 0.9951
vn -0.0464 -0.0869 -0.9951
vn -0.4691 -0.8777 -0.0976
vn -0.1374 -0.2571 0.9565
vn -0.4513 -0.8443 -0.2890
vn -0.2230 -0.4173 0.8810
vn -0.1850 -0.2254 -0.9565
vn -0.6314 -0.7693 0.0976
vn -0.0625 -0.0761 0.9951
vn -0.0625 -0.0761 -0.9951
vn -0.6314 -0.7693 -0.0976
vn -0.1850 -0.2254 0.9565
vn -0.6073 -0.7400 -0.2890
vn -0.3002 -0.3658 0.8810
vn -0.5601 -0.6825 -0.4696
vn -0.4036 -0.4918 0.7715
vn -0.4913 -0.5987 -0.6326
vn -0.4913 -0.5987 0.6326
vn -0.4036 -0.4918 -0.7715
vn -0.5601 -0.6825 0.4696
vn -0.3002 -0.3658 -0.8810
vn -0.6073 -0.7400 0.2890
vn -0.4918 -0.4036 0.7715
vn -0.5987 -0.4913 -0.6326
vn -0.5987 -0.4913 0.6326
vn -0.4918 -0.4036 -0.7715
vn -0.6825 -0.5601 0.4696
vn -0.3658 -0.3002 -0.8810
vn -0.7400 -0.6073 0.2890
vn -0.2254 -0.1850 -0.9565
vn -0.7693 -0.6314 0.0976
vn -0.0761 -0.0625 0.9951
vn -0.0761 -0.0625 -0.9951
vn -0.7693 -0.6314 -0.0976
vn -0.2254 -0.1850 0.9565
vn -0.7400 -0.6073 -0.2890
vn -0.3658 -0.3002 0.8810
vn -0.6825 -0.5601 -0.4696
vn -0.8777 -0.4691 0.0976
vn -0.0869 -0.0464 0.9951
vn -0.0869 -0.0464 -0.9951
vn -0.8777 -0.4691 -0.0976
vn -0.2571 -0.1374 0.9565
vn -0.8443 -0.4513 -0.2890
vn -0.4173 -0.2230 0.8810
vn -0.7786 -0.4162 -0.4696
vn -0.5611 -0.2999 0.7715
vn -0.6831 -0.3651 -0.6326
vn -0.6831 -0.3651 0.6326
vn -0.5611 -0.2999 -0.7715
vn -0.7786 -0.4162 0.4696
vn -0.4173 -0.2230 -0.8810
vn -0.8443 -0.4513 0.2890
vn -0.2571 -0.1374 -0.9566
vn -0.7412 -0.2248 -0.6326
vn -0.7412 -0.2248 0.6326
vn -0.6088 -0.1847 -0.7715
vn -0.8448 -0.2563 0.4696
vn -0.4528 -0.1374 -0.8810
vn -0.9161 -0.2779 0.2890
vn -0.2790 -0.0846 -0.9565
vn -0.9524 -0.2889 0.0976
vn -0.0942 -0.0286 0.9951
vn -0.0942 -0.0286 -0.9951
vn -0.9524 -0.2889 -0.0976
vn -0.2790 -0.0846 0.9565
vn -0.9161 -0.2779 -0.2890
vn -0.4528 -0.1374 0.8810
vn -0.8448 -0.2563 -0.4696
vn -0.6088 -0.1847 0.7715
vn -0.0980 -0.0097 0.9951
vn -0.0980 -0.0097 -0.9951
vn -0.9904 -0.0975 -0.0976
vn -0.2902 -0.0286 0.9565
vn -0.9527 -0.0938 -0.2890
vn -0.4709 -0.0464 0.8810
vn -0.8786 -0.0865 -0.4696
vn -0.6332 -0.0624 0.7715
vn -0.7708 -0.0759 -0.6326
vn -0.7708 -0.0759 0.6326
vn -0.6332 -0.0624 -0.7715
vn -0.8786 -0.0865 0.4696
vn -0.4709 -0.0464 -0.8810
vn -0.9527 -0.0938 0.2890
vn -0.2902 -0.0286 -0.9565
vn -0.9904 -0.0975 0.0976
vn -0.7708 0.0759 0.6326
vn -0.6332 0.0624 -0.7715
vn -0.8786 0.0865 0.4696
vn -0.4709 0.0464 -0.8810
vn -0.9527 0.0938 0.2890
vn -0.2902 0.0286 -0.9565
vn -0.9904 0.0976 0.0976
vn -0.0980 0.0097 0.9951
vn -0.0980 0.0097 -0.9951
vn -0.9904 0.0975 -0.0976
vn -0.2902 0.0286 0.9565
vn -0.9527 0.0938 -0.2890
vn -0.4709 0.0464 0.8810
vn -0.8786 0.0865 -0.4696
vn -0.6332 0.0624 0.7715
vn -0.7708 0.0759 -0.6326
vn -0.9524 0.2889 -0.0976
vn -0.2790 0.0846 0.9565
vn -0.9161 0.2779 -0.2890
vn -0.4528 0.1374 0.8810
vn -0.8448 0.2563 -0.4696
vn -0.6088 0.1847 0.7715
vn -0.7412 0.2248 -0.6326
vn -0.7412 0.2248 0.6326
vn -0.6088 0.1847 -0.7715
vn -0.8448 0.2563 0.4696
vn -0.4528 0.1374 -0.8810
vn -0.9161 0.2779 0.2890
vn -0.2790 0.0846 -0.9565
vn -0.9524 0.2889 0.0976
vn -0.0942 0.0286 0.9951
vn -0.0942 0.0286 -0.9951
vn -0.5611 0.2999 -0.7715
vn -0.7786 0.4162 0.4696
vn -0.4173 0.2231 -0.8810
vn -0.8443 0.4513 0.2890
vn -0.2571 0.1374 -0.9565
vn -0.8777 0.4691 0.0976
vn -0.0869 0.0464 0.9951
vn -0.0869 0.0464 -0.9951
vn -0.8777 0.4691 -0.0976
vn -0.2571 0.1374 0.9565
vn -0.8443 0.4513 -0.2890
vn -0.4173 0.2230 0.8810
vn -0.7786 0.4162 -0.4696
vn -0.5611 0.2999 0.7715
vn -0.6831 0.3651 -0.6326
vn -0.6831 0.3651 0.6326
vn -0.7400 0.6073 -0.2890
vn -0.3658 0.3002 0.8810
vn -0.6825 0.5601 -0.4696
vn -0.4918 0.4036 0.7715
vn -0.5987 0.4913 -0.6326
vn -0.5987 0.4913 0.6326
vn -0.4918 0.4036 -0.7715
vn -0.6825 0.5601 0.4696
vn -0.3658 0.3002 -0.8810
vn -0.7400 0.6073 0.2890
vn -0.2254 0.1850 -0.9565
vn -0.7693 0.6314 0.0976
vn -0.0761 0.0625 0.9951
vn -0.0761 0.0625 -0.9951
vn -0.7693 0.6314 -0.0976
vn -0.2254 0.1850 0.9565
vn -0.3002 0.3658 -0.8810
vn -0.6073 0.7400 0.2890
vn -0.1850 0.2254 -0.9565
vn -0.6314 0.7693 0.0976
vn -0.0625 0.0761 0.9951
vn -0.0625 0.0761 -0.9951
vn -0.6314 0.7693 -0.0976
vn -0.1850 0.2254 0.9565
vn -0.6073 0.7400 -0.2890
vn -0.3002 0.3658 0.8810
vn -0.5601 0.6825 -0.4696
vn -0.4036 0.4918 0.7715
vn -0.4913 0.5987 -0.6326
vn -0.4913 0.5987 0.6326
vn -0.4036 0.4918 -0.7715
vn -0.5601 0.6825 0.4696
vn -0.2231 0.4173 0.8810
vn -0.4162 0.7786 -0.4696
vn -0.2999 0.5611 0.7715
vn -0.3651 0.6831 -0.6326
vn -0.3651 0.6831 0.6326
vn -0.2999 0.5611 -0.7715
vn -0.4162 0.7786 0.4696
vn -0.2230 0.4173 -0.8810
vn -0.4513 0.8443 0.2890
vn -0.1374 0.2571 -0.9565
vn -0.4691 0.8777 0.0976
vn -0.0464 0.0869 0.9951
vn -0.0464 0.0869 -0.9951
vn -0.4691 0.8777 -0.0976
vn -0.1374 0.2571 0.9565
vn -0.4513 0.8443 -0.2890
vn -0.2779 0.9161 0.2890
vn -0.0846 0.2790 -0.9565
vn -0.2889 0.9524 0.0976
vn -0.0286 0.0942 0.9951
vn -0.0286 0.0942 -0.9951
vn -0.2889 0.9524 -0.0976
vn -0.0846 0.2790 0.9565
vn -0.2779 0.9161 -0.2890
vn -0.1374 0.4528 0.8810
vn -0.2563 0.8448 -0.4696
vn -0.1847 0.6088 0.7715
vn -0.2248 0.7412 -0.6326
vn -0.2248 0.7412 0.6326
vn -0.1847 0.6088 -0.7715
vn -0.2563 0.8448 0.4696
vn -0.1374 0.4528 -0.8810
vn -0.0865 0.8786 -0.4696
vn -0.0624 0.6332 0.7715
vn -0.0759 0.7708 -0.6326
vn -0.0759 0.7708 0.6326
vn -0.0624 0.6332 -0.7715
vn -0.0865 0.8786 0.4696
vn -0.0464 0.4709 -0.8810
vn -0.0938 0.9527 0.2890
vn -0.0286 0.2902 -0.9565
vn -0.0976 0.9904 0.0975
vn -0.0097 0.0980 0.9951
vn -0.0097 0.0980 -0.9951
vn -0.0976 0.9904 -0.0976
vn -0.0286 0.2902 0.9565
vn -0.0938 0.9527 -0.2890
vn -0.0464 0.4709 0.8810
vn 0.9808 -0.1951 -0.0000
vn 0.9808 0.1951 0.0000
vn 0.0975 0.9904 0.0976
vn 0.0975 0.9904 -0.0975
vn -0.2231 -0.4173 -0.8810
vn -0.2231 -0.4173 0.8810
vn -0.2571 -0.1374 -0.9565
vn -0.9904 0.0975 0.0976
vn -0.9904 0.0976 -0.0976
vn -0.2571 0.1374 0.9566
vn -0.4173 0.2231 0.8810
vn -0.2230 0.4173 0.8810
vn -0.2231 0.4173 -0.8810
vn -0.0976 0.9904 0.0976
vn -0.0976 0.9904 -0.0975
usemtl None
s off
f 3/1/1 12/2/1 13/3/1
f 283/4/2 21/5/2 284/6/2
f 3/7/3 14/8/3 4/9/3
f 284/10/4 22/11/4 285/12/4
f 4/13/5 15/14/5 5/15/5
f 285/16/6 23/17/6 10/18/6
f 5/19/7 16/20/7 6/21/7
f 10/22/8 24/23/8 286/24/8
f 6/25/9 17/26/9 7/27/9
f 286/28/10 25/29/10 287/30/10
f 7/31/11 18/32/11 8/33/11
f 1/34/12 102/35/12 11/36/12
f 26/37/13 287/38/13 25/39/13
f 8/40/14 19/41/14 9/42/14
f 1/43/15 12/44/15 2/45/15
f 9/46/16 20/47/16 283/48/16
f 31/49/17 47/50/17 32/51/17
f 39/52/18 55/53/18 40/54/18
f 33/55/19 47/56/19 48/57/19
f 41/58/20 55/59/20 56/60/20
f 33/61/21 49/62/21 34/63/21
f 27/64/22 102/35/22 42/65/22
f 26/37/23 41/66/23 56/67/23
f 34/68/24 50/69/24 35/70/24
f 27/71/25 43/72/25 28/73/25
f 35/74/26 51/75/26 36/76/26
f 29/77/27 43/78/27 44/79/27
f 37/80/28 51/81/28 52/82/28
f 30/83/29 44/84/29 45/85/29
f 37/86/30 53/87/30 38/88/30
f 30/89/31 46/90/31 31/91/31
f 39/92/32 53/93/32 54/94/32
f 50/95/33 66/96/33 51/97/33
f 43/98/34 59/99/34 44/100/34
f 52/101/35 66/102/35 67/103/35
f 45/104/36 59/105/36 60/106/36
f 52/107/37 68/108/37 53/109/37
f 46/110/38 60/111/38 61/112/38
f 53/113/39 69/114/39 54/115/39
f 46/116/40 62/117/40 47/118/40
f 54/119/41 70/120/41 55/121/41
f 48/122/42 62/123/42 63/124/42
f 55/125/43 71/126/43 56/127/43
f 48/128/44 64/129/44 49/130/44
f 42/131/45 102/35/45 57/132/45
f 26/37/46 56/133/46 71/134/46
f 49/135/47 65/136/47 50/137/47
f 42/138/48 58/139/48 43/140/48
f 70/141/49 84/142/49 85/143/49
f 63/144/50 77/145/50 78/146/50
f 71/147/51 85/148/51 86/149/51
f 63/150/52 79/151/52 64/152/52
f 57/153/53 102/35/53 72/154/53
f 26/37/54 71/155/54 86/156/54
f 65/157/55 79/158/55 80/159/55
f 57/160/56 73/161/56 58/162/56
f 65/163/57 81/164/57 66/165/57
f 58/166/58 74/167/58 59/168/58
f 67/169/59 81/170/59 82/171/59
f 60/172/60 74/173/60 75/174/60
f 67/175/61 83/176/61 68/177/61
f 61/178/62 75/179/62 76/180/62
f 68/181/63 84/182/63 69/183/63
f 61/184/64 77/185/64 62/186/64
f 82/187/65 96/188/65 97/189/65
f 74/190/66 90/191/66 75/192/66
f 82/193/67 98/194/67 83/195/67
f 76/196/68 90/197/68 91/198/68
f 84/199/69 98/200/69 99/201/69
f 76/202/70 92/203/70 77/204/70
f 84/205/71 100/206/71 85/207/71
f 78/208/72 92/209/72 93/210/72
f 86/211/73 100/212/73 101/213/73
f 78/214/74 94/215/74 79/216/74
f 72/217/75 102/35/75 87/218/75
f 26/37/76 86/219/76 101/220/76
f 79/221/77 95/222/77 80/223/77
f 72/224/78 88/225/78 73/226/78
f 80/227/79 96/228/79 81/229/79
f 73/230/80 89/231/80 74/232/80
f 100/233/81 117/234/81 101/235/81
f 94/236/82 109/237/82 110/238/82
f 87/239/83 102/35/83 103/240/83
f 26/37/84 101/241/84 117/242/84
f 94/243/85 111/244/85 95/245/85
f 87/246/86 104/247/86 88/248/86
f 95/249/87 112/250/87 96/251/87
f 88/252/88 105/253/88 89/254/88
f 97/255/89 112/256/89 113/257/89
f 90/258/90 105/259/90 106/260/90
f 97/261/91 114/262/91 98/263/91
f 91/264/92 106/265/92 107/266/92
f 98/267/93 115/268/93 99/269/93
f 91/270/94 108/271/94 92/272/94
f 99/273/95 116/274/95 100/275/95
f 93/276/96 108/277/96 109/278/96
f 106/279/97 120/280/97 121/281/97
f 113/282/98 129/283/98 114/284/98
f 107/285/99 121/286/99 122/287/99
f 114/288/100 130/289/100 115/290/100
f 107/291/101 123/292/101 108/293/101
f 116/294/102 130/295/102 131/296/102
f 109/297/103 123/298/103 124/299/103
f 116/300/104 132/301/104 117/302/104
f 109/303/105 125/304/105 110/305/105
f 103/306/106 102/35/106 118/307/106
f 26/37/107 117/308/107 132/309/107
f 110/310/108 126/311/108 111/312/108
f 103/313/109 119/314/109 104/315/109
f 111/316/110 127/317/110 112/318/110
f 104/319/111 120/320/111 105/321/111
f 113/322/112 127/323/112 128/324/112
f 124/325/113 140/326/113 125/327/113
f 118/328/114 102/35/114 133/329/114
f 26/37/115 132/330/115 147/331/115
f 125/332/116 141/333/116 126/334/116
f 118/335/117 134/336/117 119/337/117
f 126/338/118 142/339/118 127/340/118
f 119/341/119 135/342/119 120/343/119
f 128/344/120 142/345/120 143/346/120
f 121/347/121 135/348/121 136/349/121
f 129/350/122 143/351/122 144/352/122
f 122/353/123 136/354/123 137/355/123
f 129/356/124 145/357/124 130/358/124
f 122/359/125 138/360/125 123/361/125
f 131/362/126 145/363/126 146/364/126
f 124/365/127 138/366/127 139/367/127
f 132/368/128 146/369/128 147/370/128
f 143/371/129 159/372/129 144/373/129
f 137/374/130 151/375/130 152/376/130
f 144/377/131 160/378/131 145/379/131
f 137/380/132 153/381/132 138/382/132
f 146/383/133 160/384/133 161/385/133
f 139/386/134 153/387/134 154/388/134
f 146/389/135 162/390/135 147/391/135
f 139/392/136 155/393/136 140/394/136
f 133/395/137 102/35/137 148/396/137
f 26/37/138 147/397/138 162/398/138
f 140/399/139 156/400/139 141/401/139
f 134/402/140 148/396/140 149/403/140
f 141/404/141 157/405/141 142/406/141
f 134/407/142 150/408/142 135/409/142
f 143/410/143 157/411/143 158/412/143
f 136/413/144 150/414/144 151/415/144
f 148/416/145 102/35/145 163/417/145
f 26/37/146 162/418/146 177/419/146
f 156/420/147 170/421/147 171/422/147
f 149/423/148 163/417/148 164/424/148
f 156/425/149 172/426/149 157/427/149
f 149/428/150 165/429/150 150/430/150
f 158/431/151 172/432/151 173/433/151
f 151/434/152 165/435/152 166/436/152
f 158/437/153 174/438/153 159/439/153
f 151/440/154 167/441/154 152/442/154
f 160/443/155 174/444/155 175/445/155
f 152/446/156 168/447/156 153/448/156
f 161/449/157 175/450/157 176/451/157
f 154/452/158 168/453/158 169/454/158
f 161/455/159 177/456/159 162/457/159
f 154/458/160 170/459/160 155/460/160
f 167/461/161 181/462/161 182/463/161
f 174/464/162 190/465/162 175/466/162
f 167/467/163 183/468/163 168/469/163
f 176/470/164 190/471/164 191/472/164
f 169/473/165 183/474/165 184/475/165
f 176/476/166 192/477/166 177/478/166
f 169/479/167 185/480/167 170/481/167
f 163/482/168 102/35/168 178/483/168
f 26/37/169 177/484/169 192/485/169
f 171/486/170 185/487/170 186/488/170
f 164/489/171 178/483/171 179/490/171
f 171/491/172 187/492/172 172/493/172
f 164/494/173 180/495/173 165/496/173
f 173/497/174 187/498/174 188/499/174
f 166/500/175 180/501/175 181/502/175
f 173/503/176 189/504/176 174/505/176
f 185/506/177 201/507/177 186/508/177
f 178/509/178 194/510/178 179/511/178
f 186/512/179 202/513/179 187/514/179
f 179/515/180 195/516/180 180/517/180
f 188/518/181 202/519/181 203/520/181
f 181/521/182 195/522/182 196/523/182
f 188/524/183 204/525/183 189/526/183
f 181/527/184 197/528/184 182/529/184
f 189/530/185 205/531/185 190/532/185
f 182/533/186 198/534/186 183/535/186
f 191/536/187 205/537/187 206/538/187
f 184/539/188 198/540/188 199/541/188
f 191/542/189 207/543/189 192/544/189
f 184/545/190 200/546/190 185/547/190
f 178/548/191 102/35/191 193/549/191
f 26/37/192 192/550/192 207/551/192
f 204/552/193 220/553/193 205/554/193
f 197/555/194 213/556/194 198/557/194
f 206/558/195 220/559/195 221/560/195
f 199/561/196 213/562/196 214/563/196
f 206/564/197 222/565/197 207/566/197
f 199/567/198 215/568/198 200/569/198
f 193/570/199 102/35/199 208/571/199
f 26/37/200 207/572/200 222/573/200
f 201/574/201 215/575/201 216/576/201
f 193/577/202 209/578/202 194/579/202
f 201/580/203 217/581/203 202/582/203
f 195/583/204 209/584/204 210/585/204
f 203/586/205 217/587/205 218/588/205
f 196/589/206 210/590/206 211/591/206
f 203/592/207 219/593/207 204/594/207
f 197/595/208 211/596/208 212/597/208
f 216/598/209 232/599/209 217/600/209
f 209/601/210 225/602/210 210/603/210
f 218/604/211 232/605/211 233/606/211
f 210/607/212 226/608/212 211/609/212
f 218/610/213 234/611/213 219/612/213
f 212/613/214 226/614/214 227/615/214
f 219/616/215 235/617/215 220/618/215
f 212/619/216 228/620/216 213/621/216
f 220/622/217 236/623/217 221/624/217
f 214/625/218 228/626/218 229/627/218
f 221/628/219 237/629/219 222/630/219
f 214/631/220 230/632/220 215/633/220
f 208/634/221 102/35/221 223/635/221
f 26/37/222 222/636/222 237/637/222
f 216/638/223 230/639/223 231/640/223
f 208/641/224 224/642/224 209/643/224
f 235/644/225 251/645/225 236/646/225
f 229/647/226 243/648/226 244/649/226
f 236/650/227 252/651/227 237/652/227
f 230/653/228 244/654/228 245/655/228
f 223/656/229 102/35/229 238/657/229
f 26/37/230 237/658/230 252/659/230
f 230/660/231 246/661/231 231/662/231
f 223/663/232 239/664/232 224/665/232
f 231/666/233 247/667/233 232/668/233
f 224/669/234 240/670/234 225/671/234
f 233/672/235 247/673/235 248/674/235
f 225/675/236 241/676/236 226/677/236
f 233/678/237 249/679/237 234/680/237
f 227/681/238 241/682/238 242/683/238
f 235/684/239 249/685/239 250/686/239
f 227/687/240 243/688/240 228/689/240
f 240/690/241 254/691/241 255/692/241
f 248/693/242 262/694/242 263/695/242
f 241/696/243 255/697/243 256/698/243
f 248/699/244 264/700/244 249/701/244
f 242/702/245 256/703/245 257/704/245
f 249/705/246 265/706/246 250/707/246
f 242/708/247 258/709/247 243/710/247
f 250/711/248 266/712/248 251/713/248
f 244/714/249 258/715/249 259/716/249
f 251/717/250 267/718/250 252/719/250
f 244/720/251 260/721/251 245/722/251
f 238/723/252 102/35/252 253/724/252
f 26/37/253 252/725/253 267/726/253
f 245/727/254 261/728/254 246/729/254
f 239/730/255 253/724/255 254/731/255
f 246/732/256 262/733/256 247/734/256
f 259/735/257 273/736/257 274/737/257
f 267/738/258 281/739/258 282/740/258
f 259/741/259 275/742/259 260/743/259
f 253/744/260 102/35/260 268/745/260
f 26/37/261 267/746/261 282/747/261
f 260/748/262 276/749/262 261/750/262
f 253/751/263 269/752/263 254/753/263
f 261/754/264 277/755/264 262/756/264
f 254/757/265 270/758/265 255/759/265
f 263/760/266 277/761/266 278/762/266
f 255/763/267 271/764/267 256/765/267
f 263/766/268 279/767/268 264/768/268
f 257/769/269 271/770/269 272/771/269
f 264/772/270 280/773/270 265/774/270
f 257/775/271 273/776/271 258/777/271
f 265/778/272 281/779/272 266/780/272
f 278/781/273 283/782/273 284/783/273
f 271/784/274 3/785/274 4/786/274
f 278/787/275 285/788/275 279/789/275
f 272/790/276 4/791/276 5/792/276
f 279/793/277 10/794/277 280/795/277
f 273/796/278 5/797/278 6/798/278
f 280/799/279 286/800/279 281/801/279
f 274/802/280 6/803/280 7/804/280
f 281/805/281 287/806/281 282/807/281
f 275/808/282 7/809/282 8/810/282
f 268/811/283 102/35/283 1/812/283
f 26/37/284 282/813/284 287/814/284
f 275/815/285 9/816/285 276/817/285
f 269/818/286 1/812/286 2/819/286
f 276/820/287 283/821/287 277/822/287
f 270/823/288 2/824/288 3/825/288
f 13/826/289 102/35/289 19/827/289
f 28/828/290 32/829/290 36/830/290
f 3/1/1 2/831/1 12/2/1
f 283/4/2 20/832/2 21/5/2
f 3/7/3 13/826/3 14/8/3
f 284/10/4 21/833/4 22/11/4
f 4/13/5 14/834/5 15/14/5
f 285/16/6 22/835/6 23/17/6
f 5/19/7 15/836/7 16/20/7
f 10/22/8 23/837/8 24/23/8
f 6/25/9 16/838/9 17/26/9
f 286/28/10 24/839/10 25/29/10
f 7/31/291 17/840/291 18/32/291
f 8/40/292 18/841/292 19/41/292
f 1/43/15 11/36/15 12/44/15
f 9/46/16 19/827/16 20/47/16
f 31/49/17 46/842/17 47/50/17
f 39/52/18 54/843/18 55/53/18
f 33/55/19 32/829/19 47/56/19
f 41/58/20 40/844/20 55/59/20
f 33/61/21 48/845/21 49/62/21
f 34/68/24 49/846/24 50/69/24
f 27/71/25 42/65/25 43/72/25
f 35/74/26 50/847/26 51/75/26
f 29/77/27 28/828/27 43/78/27
f 37/80/28 36/830/28 51/81/28
f 30/83/29 29/848/29 44/84/29
f 37/86/30 52/849/30 53/87/30
f 30/89/31 45/850/31 46/90/31
f 39/92/32 38/851/32 53/93/32
f 50/95/33 65/852/33 66/96/33
f 43/98/34 58/853/34 59/99/34
f 52/101/35 51/854/35 66/102/35
f 45/104/36 44/855/36 59/105/36
f 52/107/37 67/856/37 68/108/37
f 46/110/38 45/857/38 60/111/38
f 53/113/39 68/858/39 69/114/39
f 46/116/40 61/859/40 62/117/40
f 54/119/41 69/860/41 70/120/41
f 48/122/42 47/861/42 62/123/42
f 55/125/43 70/862/43 71/126/43
f 48/128/44 63/863/44 64/129/44
f 49/135/47 64/864/47 65/136/47
f 42/138/48 57/132/48 58/139/48
f 70/141/49 69/865/49 84/142/49
f 63/144/50 62/866/50 77/145/50
f 71/147/51 70/867/51 85/148/51
f 63/150/52 78/868/52 79/151/52
f 65/157/55 64/869/55 79/158/55
f 57/160/56 72/154/56 73/161/56
f 65/163/57 80/870/57 81/164/57
f 58/166/58 73/871/58 74/167/58
f 67/169/59 66/872/59 81/170/59
f 60/172/60 59/873/60 74/173/60
f 67/175/61 82/874/61 83/176/61
f 61/178/62 60/875/62 75/179/62
f 68/181/63 83/876/63 84/182/63
f 61/184/64 76/877/64 77/185/64
f 82/187/65 81/878/65 96/188/65
f 74/190/66 89/879/66 90/191/66
f 82/193/67 97/880/67 98/194/67
f 76/196/68 75/881/68 90/197/68
f 84/199/69 83/882/69 98/200/69
f 76/202/70 91/883/70 92/203/70
f 84/205/293 99/884/293 100/206/293
f 78/208/72 77/885/72 92/209/72
f 86/211/73 85/886/73 100/212/73
f 78/214/74 93/887/74 94/215/74
f 79/221/77 94/888/77 95/222/77
f 72/224/78 87/218/78 88/225/78
f 80/227/79 95/889/79 96/228/79
f 73/230/294 88/890/294 89/231/294
f 100/233/81 116/891/81 117/234/81
f 94/236/82 93/892/82 109/237/82
f 94/243/85 110/893/85 111/244/85
f 87/246/86 103/240/86 104/247/86
f 95/249/87 111/894/87 112/250/87
f 88/252/88 104/895/88 105/253/88
f 97/255/89 96/896/89 112/256/89
f 90/258/90 89/897/90 105/259/90
f 97/261/91 113/898/91 114/262/91
f 91/264/92 90/899/92 106/265/92
f 98/267/93 114/900/93 115/268/93
f 91/270/94 107/901/94 108/271/94
f 99/273/95 115/902/95 116/274/95
f 93/276/96 92/903/96 108/277/96
f 106/279/97 105/904/97 120/280/97
f 113/282/98 128/905/98 129/283/98
f 107/285/99 106/906/99 121/286/99
f 114/288/100 129/907/100 130/289/100
f 107/291/101 122/908/101 123/292/101
f 116/294/102 115/909/102 130/295/102
f 109/297/103 108/910/103 123/298/103
f 116/300/104 131/911/104 132/301/104
f 109/303/105 124/912/105 125/304/105
f 110/310/108 125/913/108 126/311/108
f 103/313/109 118/307/109 119/314/109
f 111/316/110 126/914/110 127/317/110
f 104/319/111 119/915/111 120/320/111
f 113/322/112 112/916/112 127/323/112
f 124/325/113 139/917/113 140/326/113
f 125/332/116 140/918/116 141/333/116
f 118/335/117 133/329/117 134/336/117
f 126/338/118 141/919/118 142/339/118
f 119/341/119 134/920/119 135/342/119
f 128/344/120 127/921/120 142/345/120
f 121/347/121 120/922/121 135/348/121
f 129/350/122 128/923/122 143/351/122
f 122/353/123 121/924/123 136/354/123
f 129/356/124 144/925/124 145/357/124
f 122/359/125 137/926/125 138/360/125
f 131/362/126 130/927/126 145/363/126
f 124/365/127 123/928/127 138/366/127
f 132/368/295 131/929/295 146/369/295
f 143/371/129 158/930/129 159/372/129
f 137/374/130 136/931/130 151/375/130
f 144/377/131 159/932/131 160/378/131
f 137/380/132 152/933/132 153/381/132
f 146/383/133 145/934/133 160/384/133
f 139/386/134 138/935/134 153/387/134
f 146/389/135 161/936/135 162/390/135
f 139/392/136 154/937/136 155/393/136
f 140/399/139 155/938/139 156/400/139
f 134/402/140 133/939/140 148/396/140
f 141/404/141 156/940/141 157/405/141
f 134/407/142 149/941/142 150/408/142
f 143/410/143 142/942/143 157/411/143
f 136/413/144 135/943/144 150/414/144
f 156/420/147 155/944/147 170/421/147
f 149/423/148 148/945/148 163/417/148
f 156/425/149 171/946/149 172/426/149
f 149/428/150 164/947/150 165/429/150
f 158/431/151 157/948/151 172/432/151
f 151/434/152 150/949/152 165/435/152
f 158/437/153 173/950/153 174/438/153
f 151/440/154 166/951/154 167/441/154
f 160/443/155 159/952/155 174/444/155
f 152/446/156 167/953/156 168/447/156
f 161/449/157 160/954/157 175/450/157
f 154/452/158 153/955/158 168/453/158
f 161/455/159 176/956/159 177/456/159
f 154/458/160 169/957/160 170/459/160
f 167/461/161 166/958/161 181/462/161
f 174/464/162 189/959/162 190/465/162
f 167/467/163 182/960/163 183/468/163
f 176/470/164 175/961/164 190/471/164
f 169/473/165 168/962/165 183/474/165
f 176/476/166 191/963/166 192/477/166
f 169/479/296 184/964/296 185/480/296
f 171/486/297 170/965/297 185/487/297
f 164/489/171 163/966/171 178/483/171
f 171/491/172 186/967/172 187/492/172
f 164/494/173 179/968/173 180/495/173
f 173/497/174 172/969/174 187/498/174
f 166/500/175 165/970/175 180/501/175
f 173/503/176 188/971/176 189/504/176
f 185/506/177 200/972/177 201/507/177
f 178/509/178 193/549/178 194/510/178
f 186/512/179 201/973/179 202/513/179
f 179/515/180 194/974/180 195/516/180
f 188/518/181 187/975/181 202/519/181
f 181/521/182 180/976/182 195/522/182
f 188/524/183 203/977/183 204/525/183
f 181/527/184 196/978/184 197/528/184
f 189/530/185 204/979/185 205/531/185
f 182/533/186 197/980/186 198/534/186
f 191/536/187 190/981/187 205/537/187
f 184/539/188 183/982/188 198/540/188
f 191/542/189 206/983/189 207/543/189
f 184/545/190 199/984/190 200/546/190
f 204/552/193 219/985/193 220/553/193
f 197/555/194 212/986/194 213/556/194
f 206/558/195 205/987/195 220/559/195
f 199/561/196 198/988/196 213/562/196
f 206/564/197 221/989/197 222/565/197
f 199/567/198 214/990/198 215/568/198
f 201/574/201 200/991/201 215/575/201
f 193/577/298 208/571/298 209/578/298
f 201/580/203 216/992/203 217/581/203
f 195/583/299 194/993/299 209/584/299
f 203/586/205 202/994/205 217/587/205
f 196/589/206 195/995/206 210/590/206
f 203/592/207 218/996/207 219/593/207
f 197/595/208 196/997/208 211/596/208
f 216/598/209 231/998/209 232/599/209
f 209/601/210 224/999/210 225/602/210
f 218/604/211 217/1000/211 232/605/211
f 210/607/212 225/1001/212 226/608/212
f 218/610/213 233/1002/213 234/611/213
f 212/613/214 211/1003/214 226/614/214
f 219/616/215 234/1004/215 235/617/215
f 212/619/216 227/1005/216 228/620/216
f 220/622/217 235/1006/217 236/623/217
f 214/625/218 213/1007/218 228/626/218
f 221/628/219 236/1008/219 237/629/219
f 214/631/220 229/1009/220 230/632/220
f 216/638/223 215/1010/223 230/639/223
f 208/641/224 223/635/224 224/642/224
f 235/644/225 250/1011/225 251/645/225
f 229/647/226 228/1012/226 243/648/226
f 236/650/227 251/1013/227 252/651/227
f 230/653/228 229/1014/228 244/654/228
f 230/660/231 245/1015/231 246/661/231
f 223/663/232 238/657/232 239/664/232
f 231/666/233 246/1016/233 247/667/233
f 224/669/234 239/1017/234 240/670/234
f 233/672/235 232/1018/235 247/673/235
f 225/675/236 240/1019/236 241/676/236
f 233/678/237 248/1020/237 249/679/237
f 227/681/238 226/1021/238 241/682/238
f 235/684/239 234/1022/239 249/685/239
f 227/687/240 242/1023/240 243/688/240
f 240/690/300 239/1024/300 254/691/300
f 248/693/242 247/1025/242 262/694/242
f 241/696/243 240/1026/243 255/697/243
f 248/699/244 263/1027/244 264/700/244
f 242/702/245 241/1028/245 256/703/245
f 249/705/246 264/1029/246 265/706/246
f 242/708/247 257/1030/247 258/709/247
f 250/711/301 265/1031/301 266/712/301
f 244/714/249 243/1032/249 258/715/249
f 251/717/250 266/1033/250 267/718/250
f 244/720/251 259/1034/251 260/721/251
f 245/727/254 260/1035/254 261/728/254
f 239/730/255 238/1036/255 253/724/255
f 246/732/256 261/1037/256 262/733/256
f 259/735/257 258/1038/257 273/736/257
f 267/738/258 266/1039/258 281/739/258
f 259/741/259 274/1040/259 275/742/259
f 260/748/262 275/1041/262 276/749/262
f 253/751/263 268/745/263 269/752/263
f 261/754/264 276/1042/264 277/755/264
f 254/757/265 269/1043/265 270/758/265
f 263/760/266 262/1044/266 277/761/266
f 255/763/267 270/1045/267 271/764/267
f 263/766/268 278/1046/268 279/767/268
f 257/769/269 256/1047/269 271/770/269
f 264/772/270 279/1048/270 280/773/270
f 257/775/271 272/1049/271 273/776/271
f 265/778/272 280/1050/272 281/779/272
f 278/781/273 277/1051/273 283/782/273
f 271/784/274 270/1052/274 3/785/274
f 278/787/275 284/1053/275 285/788/275
f 272/790/276 271/1054/276 4/791/276
f 279/793/277 285/1055/277 10/794/277
f 273/796/278 272/1056/278 5/797/278
f 280/799/279 10/1057/279 286/800/279
f 274/802/280 273/1058/280 6/803/280
f 281/805/281 286/1059/281 287/806/281
f 275/808/302 274/1060/302 7/809/302
f 275/815/303 8/1061/303 9/816/303
f 269/818/286 268/1062/286 1/812/286
f 276/820/287 9/1063/287 283/821/287
f 270/823/288 269/1064/288 2/824/288
f 12/2/289 11/36/289 13/826/289
f 11/36/289 102/35/289 13/826/289
f 102/35/289 26/37/289 25/39/289
f 25/39/289 24/839/289 23/837/289
f 23/837/289 22/835/289 19/827/289
f 22/835/289 21/833/289 19/827/289
f 21/833/289 20/832/289 19/827/289
f 19/827/289 18/841/289 17/840/289
f 17/840/289 16/838/289 15/836/289
f 15/836/289 14/834/289 13/826/289
f 102/35/289 25/39/289 19/827/289
f 25/39/289 23/837/289 19/827/289
f 19/827/289 17/840/289 15/836/289
f 15/836/289 13/826/289 19/827/289
f 102/35/290 27/64/290 26/37/290
f 27/64/290 28/828/290 26/37/290
f 28/828/290 29/848/290 30/89/290
f 30/89/290 31/49/290 28/828/290
f 31/49/290 32/829/290 28/828/290
f 32/829/290 33/61/290 36/830/290
f 33/61/290 34/68/290 36/830/290
f 34/68/290 35/74/290 36/830/290
f 36/830/290 37/86/290 40/844/290
f 37/86/290 38/851/290 40/844/290
f 38/851/290 39/52/290 40/844/290
f 40/844/290 41/66/290 26/37/290
f 40/844/290 26/37/290 36/830/290
f 26/37/290 28/828/290 36/830/290
